https://raw.githubusercontent.com/kdungs/euler/master/034/euler_34.c
https://raw.githubusercontent.com/DestructHub/ProjectEuler/master/Problem034/Elixir/solution_1.exs
https://raw.githubusercontent.com/nayuki/Project-Euler-solutions/master/haskell/p034.hs
https://raw.githubusercontent.com/nayuki/Project-Euler-solutions/master/java/p034.java
https://raw.githubusercontent.com/wce-codepals/hacktoberfest-projecteuler/master/solutions/problem-34/solution.py
https://raw.githubusercontent.com/DestructHub/ProjectEuler/master/Problem034/Ruby/solution_1.rb
https://raw.githubusercontent.com/zsiciarz/euler.rs/master/src/solutions/problem34.rs
