https://raw.githubusercontent.com/pathosDev/CodinGame-Solutions/master/Puzzles/Easy/Ghost%20Legs/CSharp.cs
https://raw.githubusercontent.com/pathosDev/CodinGame-Solutions/master/Puzzles/Easy/Ghost%20Legs/Java.java
https://raw.githubusercontent.com/pathosDev/CodinGame-Solutions/master/Puzzles/Easy/Ghost%20Legs/Python.py
