30
PP SS PP RP SR SS PP SR RR PR SR SS PS
PS RR RS SR PP RS RR SR PR SS RS
PP PR PS SP PS SP
SP SR SS RS RS RP RS RR SP PP SP
PP PS RP PR RS RP PR SP RS PS SP
SR PP SR SS SP RS PS
PR SP SR SP
SR RS SP SS SP RP SR RP PP RS RR PP RR RR SP
SS SP SR RP RS SP PS SS PP RP SR SR
RR PR SP SP RP PP SS PP SR SP
PR PP PP SR PR PS SP
RP RR SP SP PR SR PP SP SS RP RP PP RP
SR PP PS PP PS RS PP SP RR PP RR SS PP RS PP SP SR SR RP
PP RP SS RP SR SP PR RR PP RP RS PP SS PR SS SP RR SR SR
PP RS SR RS PP RR PS PR SR PS
RS PP SR PS PS PS SP SR PP SR
SS PR SP PR RP PS SS SR RS PS RP
PR SR PP PP PR RS SP RR PP PP PP RP PS RP RP RS PS
RP PP SP PP PS PS PR RS SS RR RR PP RS PR RP RR RP PS
RR PS SR PR PR SR PR RP PS SP PR PR
SR PP SP PR SP
SS PP RP PP SS RR PS SS SR
RR SP PS RS RS PR SR PR RR SS SP
RS SS SP RS SR SR PP RP PR SS RR PP PP RR RP RR RS SS PS SR
PP PS PS PS SR SS SP PR PP RS SP RP PR SR
RR RP SR SP PS PS SR PR PS
RS PS PP PS PP RR PP PS RP SS SP RS RR PP SR
RR RR PS SR RR PP PS SR SP SS PP SR SR
RR SR RS PP PR PS PP RR SR RR SP RP SP PR
PS RP SP SP SP
