https://www.youtube.com/watch?v=tI592BjTd4o
https://medium.com/secjuice/hackthebox-shrek-writeup-46b8907fbc43
https://drive.google.com/file/d/13uaCnEifa8n2LyxRQ6278Mj3lWvNegj9/view
https://redteamtutorials.com/2018/12/07/hack-the-box-shrek/
https://github.com/Kyuu-Ji/htb-write-up/blob/master/shrek/write-up-shrek.md
https://0xdf.gitlab.io/2020/07/22/htb-shrek.html
https://forum.hackthebox.eu/discussion/451/shrek-writeup-by-booj
https://www.peerlyst.com/posts/how-to-hackthebox-shrek-machine-writeup-spirited-wolf
https://www.hackingarticles.in/hack-the-box-challenge-shrek-walkthrough/
https://www.jdksec.com/hack-the-box/shrek
