https://www.52pojie.cn/thread-653663-1-1.html
https://m.blog.naver.com/PostView.nhn?blogId=wlstngus0504&logNo=220399644443&proxyReferer=https%3A%2F%2Fwww.google.com%2F
https://einai.tistory.com/entry/%EB%AC%B8%EC%A0%9C%ED%92%80%EC%9D%B4-reversingkr-MetroApp
