https://raw.githubusercontent.com/DestructHub/ProjectEuler/master/Problem067/Elixir/solution_1.exs
https://raw.githubusercontent.com/nayuki/Project-Euler-solutions/master/haskell/p067.hs
https://raw.githubusercontent.com/nayuki/Project-Euler-solutions/master/java/p067.java
https://raw.githubusercontent.com/kdungs/euler/master/067/euler_67.py
https://raw.githubusercontent.com/zsiciarz/euler.rs/master/src/solutions/problem67.rs
