https://raw.githubusercontent.com/pastelito02/Challenges-sol/master/Programming/Codeabbey/136/Hennes.hs
https://raw.githubusercontent.com/pastelito02/Challenges-sol/master/Programming/Codeabbey/136/Ihor.java
https://raw.githubusercontent.com/pastelito02/Challenges-sol/master/Programming/Codeabbey/136/Marco%20Bolis.js
https://raw.githubusercontent.com/pastelito02/Challenges-sol/master/Programming/Codeabbey/136/KOR_Ryat.php
https://raw.githubusercontent.com/pastelito02/Challenges-sol/master/Programming/Codeabbey/136/BlackSpirit.py
https://raw.githubusercontent.com/pastelito02/Challenges-sol/master/Programming/Codeabbey/136/Unihedron.rb
