https://medium.com/challenges-htb/como-resolver-bank-heist-htb-46a67a1fefe0
https://solitudelab.wordpress.com/2019/08/12/2-write-up-crypto-bank-heist-hackthebox/
https://www.youtube.com/watch?v=6QYl4nfOFkw
https://www.theobservator.net/write-up-hack-the-box-bank-heist-crypto/
https://medium.com/@isharaabeythissa/hackthebox-crypto-bank-heist-done-by-venome1995-e632bcf7228a
https://0xrick.github.io/hack-the-box/heist/
