https://raw.githubusercontent.com/mpillar/codeeval/master/2-hard/word-search/WordSearch.java
https://raw.githubusercontent.com/pascal-bourut/codeeval-challenges/master/hard/65%20-%20Word%20search/65.js
https://raw.githubusercontent.com/pascal-bourut/codeeval-challenges/master/hard/65%20-%20Word%20search/65.php
https://raw.githubusercontent.com/skmanoj/codeEval/master/hard/wordSearch.py
https://gitlab.com/agaskell/codeeval/-/raw/master/65/65.rb
