https://raw.githubusercontent.com/PlatyPew/picoctf-2018-writeup/master/Binary%20Exploitation/authenticate/README.md
https://ctftime.org/writeup/11583
https://raw.githubusercontent.com/PlatyPew/picoctf-2018-writeup/master/Binary%20Exploitation/buffer%20overflow%202/README.md
https://tcode2k16.github.io/blog/posts/picoctf-2018-writeup/binary-exploitation/#buffer-overflow-1
https://www.youtube.com/watch?v=eJ0FmCfD-1g
https://www.youtube.com/watch?v=hB_oLDjhBIQ
https://www.youtube.com/watch?v=qOJMubzLXrk
https://www.youtube.com/watch?v=xshCJJL9l5s
