https://raw.githubusercontent.com/JohndoeChivas/RootMeChallenges/master/Web-Serveur/Directory%20traversal
https://raw.githubusercontent.com/zyjsuper/root-me-4/master/Web-Server/Directory%20Traversal
https://bitbelle.wordpress.com/2018/01/10/root-me-web-server-challenge-solutions/
https://raw.githubusercontent.com/RomaniukVadim/wargaming-challenges/master/RootMe/web-server/directory_traversal.txt
