https://gist.githubusercontent.com/yuheiomori/11415221/raw/d5fc55ec2d2a122ec9110a553fbe0ba9580e4833/main.c
https://raw.githubusercontent.com/mementum/codeeval/master/01-easy/0018-multiples-of-a-number/0018-multiples-of-a-number.cpp
https://raw.githubusercontent.com/AvetisG/CodeEval/master/01%20-%20Easy/C%23/MultiplesOfANumber/MultiplesOfANumberSolution.cs
https://gitlab.com/banjocat/codeeval_solutions/-/raw/master/18/main.go
https://raw.githubusercontent.com/edeng/CodeEval/master/Easy/MultiplesOfANumber.java
https://raw.githubusercontent.com/rdtsc/codeeval-solutions/master/src/easy/multiples-of-a-number/solutions/javascript/solution.js
https://raw.githubusercontent.com/AnEmortalKid/codeeval-lua/master/src/main/lua/com/anemortalkid/codeeval/lua/easy/multiples/multiples.lua
https://raw.githubusercontent.com/rdtsc/codeeval-solutions/master/src/easy/multiples-of-a-number/solutions/php/solution.php
https://raw.githubusercontent.com/edeng/CodeEval/master/Easy/MultiplesOfANumber.py
https://gitlab.com/agaskell/codeeval/-/raw/master/18/18.rb
