https://raw.githubusercontent.com/rdtsc/codeeval-solutions/master/src/easy/knight-moves/solutions/c/solution.c
https://raw.githubusercontent.com/rdtsc/codeeval-solutions/master/src/easy/knight-moves/solutions/c%2B%2B/solution.cpp
https://raw.githubusercontent.com/AvetisG/CodeEval/master/01%20-%20Easy/C%23/KnightMoves/KnightMovesSolution.cs
https://raw.githubusercontent.com/rdtsc/codeeval-solutions/master/src/easy/knight-moves/solutions/javascript/solution.js
https://raw.githubusercontent.com/mpillar/codeeval/master/0-easy/knight-moves/main.py
