https://raw.githubusercontent.com/Gamer1092/Coderbyte-Medium/Medium/Palindrome%20Two.cpp
https://raw.githubusercontent.com/ZLester/Coderbyte-Solutions/master/Medium/04%20-%20Palindrome%20Two.js
https://raw.githubusercontent.com/bolducp/coderbyte/master/medium/04_palindrome_two.py
https://raw.githubusercontent.com/tomyancey/coderbyte_solutions/master/palindrome_two.rb
https://raw.githubusercontent.com/designerGenes/CoderbyteInSwift/master/PalindromeTwo/PalindromeTwo.playground/Contents.swift
