http://komorebi0122.blogspot.com/2016/12/high-html-injection-reflected-get.html
http://penthusiasts.blogspot.com/2013/12/bwapp-html-injection-reflected-get.html
http://security-is-just-an-illusion.blogspot.com/2014/01/bwapp-html-injection.html
https://n00bsecurityblog.wordpress.com/2017/09/09/bwapp-series-html-injection-why-it-matters-and-html-injection-get/
https://n00bsecurityblog.wordpress.com/2017/09/20/html-injection-reflected-current-url/
https://seleniumbycharan.wordpress.com/2017/03/17/html-injection-reflected-get/
https://web.archive.org/web/20170906000054/http://teamultimate.in:80/html-injection-reflected-stored/
https://www.jianshu.com/p/ee4cf6ca4d4c
https://www.youtube.com/watch?v=HuOJxvofOeY
https://www.youtube.com/watch?v=PRBKzx4QiSc
https://www.youtube.com/watch?v=q4SVMPGASIU
https://www.youtube.com/watch?v=EuTzDivsJb0
https://www.youtube.com/watch?v=5_IFhRgIbuQ
https://www.youtube.com/watch?v=8N6zmn7izto
https://www.youtube.com/watch?v=autKU43_NL8
https://wooly6bear.files.wordpress.com/2016/01/bwapp-tutorial.pdf
http://penthusiasts.blogspot.com/2013/12/bwapp-html-injection-all.html
https://mukhilan.com/bwapp-html-2/#medium-level--1
https://www.youtube.com/watch?v=eQIYhvKCWx4
https://www.youtube.com/watch?v=ib3ZKFfRn3E
https://underc0de.org/foro/hacking/html-injection-(post-para-novatos)/
https://teckk2.github.io/web-pentesting/2018/02/07/HTML-Injection-Reflected(GET).html
https://secapps.com/tutorials/html-injection/index
https://l1cafe.blog/2019/03/17/bwapp-writeup.html
http://www.anonhack.in/2018/07/html-injection-reflected-post-level-medium-bwapp/
https://www.hackplayers.com/2017/06/diseccionando-bwapp-html-injection.html
https://cert.bournemouth.ac.uk/bwapp-html-injection-stored-blog/
