https://raw.githubusercontent.com/charles-wangkai/hacker.org/master/challenge/CommonComment.txt
http://hackerorgsolution.blogspot.com.co/2014/09/common-comment.html
https://github.com/imaohw/hacker.org/blob/master/003/solve.txt

