https://www.youtube.com/watch?v=r0l_54thSYU
https://www.youtube.com/watch?v=_WQe36pZ3mA
https://www.youtube.com/watch?v=w5HHzpblgE0
https://www.youtube.com/watch?v=prFSXGl_xPw
https://www.youtube.com/watch?v=JL6cZf4ZEQ8
https://www.youtube.com/watch?v=1Jxoid7Rol4
https://www.youtube.com/watch?v=e5eAFm-DJak
https://www.youtube.com/watch?v=VjxCq1EQ3Xw
https://www.youtube.com/watch?v=oUVU9yHWzug
https://www.youtube.com/watch?v=83tusHyvJRk

