http://sp4hack.blogspot.com.co/2012/09/hack-this-site-programming-1.html
https://raw.githubusercontent.com/luceatnobis/challenges/master/hackthissite.org/programming/1/1.pl
https://raw.githubusercontent.com/Wh1t3Fox/hackthissite/master/programming/01.unscramle_words/unscramble.py
https://techoverflow.net/2012/11/15/hackthissite-programming-challenge-1-algorithm-unscrambling/
https://www.youtube.com/watch?v=ok6-KGYQN7E
https://raw.githubusercontent.com/attilathedud/HackThisSite/master/Programming/Problem1/Problem1.py
