https://www.youtube.com/watch?v=N48MgKxyefA&t=4s
https://www.youtube.com/watch?v=LxQaSiYAwuc
https://www.youtube.com/watch?v=eWubcGPN_28
https://www.youtube.com/watch?v=x2lR8TcoaqQ
https://www.youtube.com/watch?v=M8-XGtHYJxU&t=5s
https://www.youtube.com/watch?v=DC8GFsXHIiY
https://www.youtube.com/watch?v=Og3vNKnUSac&t=8s
https://www.youtube.com/watch?v=-fxRE2qlZgk
https://www.youtube.com/watch?v=3HbgwWE_-RE
https://www.youtube.com/watch?v=IJSql7SH8p8
