https://www.youtube.com/watch?v=lD9kZvcHW98
https://www.hackingarticles.in/hack-the-fourandsix-ctf-challenge/
https://www.youtube.com/watch?v=XP9qy-DYf7I
https://www.youtube.com/watch?v=hyia4G8DaiA
http://www.cynergy.solutions/fourandsix1-ctf-hacking-challenge-walkthrough-vulnhub/
https://bzyo.github.io/fourandsix-1/
http://www.thehackerstore.net/2018/07/fourandsix-1-ctf-vulnhub.html
https://medium.com/@cyberpool/fourandsix-1-walkthrough-76bf19e1f005
https://www.auedbaki.com/article/5bed3183fb93e4001642d053#
https://lonelysec.com/vulnhub-x-fourandsix-1/
https://www.turkhackteam.org/capture-flag/1786279-fourandsix-1-zafiyetli-makine-cozumu-qwx.html
https://quantus.biz/security/2018/11/14/fourandsix1-ctf-hacking-challenge-walkthrough-vulnhub/
https://hackso.me/fourandsix-1-walkthrough/
https://www.peerlyst.com/posts/fourandsix-vulnhub-ctf-walkthrough-beginner-challenge-motasem-hamdan
