VoiCI unE SUpeRbe reCeTtE cONcontee pAR un GrouPe d'ArtistEs culinaiRe, dONT le BOn Gout et lE SeNs de LA cLasSe n'est limIteE qUe par LE nombre DE cAlOries qU'ils PeUVEnt Ingurgiter. Ces virtuoses de la friteuse vous presente ce petit clip plein de gout savoureux !!

THEFLAGISBACONANDJACKDANIELSACAAAAAAAAAAAAA
