https://raw.githubusercontent.com/eagletmt/project-euler-c/master/1-9/problem9.c
https://raw.githubusercontent.com/danielfm/euler-clojure/master/euler/problem_9.clj
https://raw.githubusercontent.com/EaterOA/Euler/master/1-25/euler009.cpp
https://raw.githubusercontent.com/DestructHub/ProjectEuler/master/Problem009/Elixir/solution_1.exs
https://raw.githubusercontent.com/raleighlittles/ProjectEuler-Fortran/master/problem_9.f95
https://raw.githubusercontent.com/jmoiron/euler.go/master/009.go
https://raw.githubusercontent.com/nayuki/Project-Euler-solutions/master/haskell/p009.hs
https://raw.githubusercontent.com/nayuki/Project-Euler-solutions/master/java/p009.java
https://raw.githubusercontent.com/johnmyleswhite/projecteuler.jl/master/009.jl
https://raw.githubusercontent.com/necolas/project-euler/master/009/009.js
https://raw.githubusercontent.com/DestructHub/ProjectEuler/master/Problem009/CommonLisp/solution_1.lisp
https://raw.githubusercontent.com/fedeisas/project-euler/master/09/run.php
https://raw.githubusercontent.com/jpillora/euler-in-perl/master/009.pl
https://raw.githubusercontent.com/nayuki/Project-Euler-solutions/master/python/p009.py
https://raw.githubusercontent.com/DestructHub/ProjectEuler/master/Problem009/Ruby/solution_1.rb
https://raw.githubusercontent.com/zsiciarz/euler.rs/master/src/solutions/problem9.rs
https://raw.githubusercontent.com/samskivert/euler-scala/master/Euler009.scala
https://raw.githubusercontent.com/nayuki/Project-Euler-solutions/master/mathematica/p009.mathematica
