https://raw.githubusercontent.com/feix/ctf-writeup/master/canyouhackit/reconnaissance/solution3
https://sithlab.tistory.com/1455
https://raw.githubusercontent.com/pastelito02/Challenges-sol/master/canyouhackit/Reco/solution3.lst
