https://kupdf.net/download/demotestfirenet-security-report-86_5b0466cde2b6f5b31f0e6896_pdf
https://www.psc-securities.com/lp/appscan/pdf/websecurity_sample.pdf
https://www.youtube.com/watch?v=5BpStW4zM44
http://blog.eslimasec.com/2010/12/glance-at-altoro-mutual.html
