https://gist.githubusercontent.com/Nilaycb/ab07d5959a630292194f6a78c6e0fbdc/raw/cac923be05acd1919a3e0d8e3653b77b06f5051b/Reverse%2520String%2520in%2520Assembly.asm
https://raw.githubusercontent.com/lllllll-llll-llllll/codeabbey_autoit/master/30.au3
https://raw.githubusercontent.com/oskarth/praxis/master/reverse-string.c
https://gist.githubusercontent.com/noahlz/1428694/raw/a49212140d0722c8af59d619d7993d28ddfed8d5/reverse-str.clj
https://gist.githubusercontent.com/utgarda/2158025/raw/46ec121eca7895d111d8679fe46389fa98bf7dcd/reverse.coffee
https://raw.githubusercontent.com/gravoo/codeabbey/master/Reverse%20String%20.cpp
https://raw.githubusercontent.com/crystal-lang/crystal/master/src/string.cr
https://raw.githubusercontent.com/Tempurturtul/CodeAbbey/master/C%23/ReverseString.cs
https://raw.githubusercontent.com/pastelito02/Challenges-sol/master/Programming/Codeabbey/128/Ratzenfutz.d
https://raw.githubusercontent.com/keepcalmandcodecodecode/dart-reverse-string/master/lib/dart_reverse_string.dart
https://gist.githubusercontent.com/reckenrode/83118c53d72278767b45e7995ba575c6/raw/89cb77cd20b43a4d5148fbbd4a46df4167227a4a/reverse.fs
https://raw.githubusercontent.com/pastelito02/Challenges-sol/master/Programming/Codeabbey/001/rosettacode.funl
https://raw.githubusercontent.com/vinitkantrod/go-codeabbey/master/19_reverese_string/main.go
https://gist.githubusercontent.com/kikairoya/1286400/raw/bd5a9fe2ba911c2d04bd0b6c94232abdc035d938/string_piece.hpp
https://raw.githubusercontent.com/cevaris/hackerrank/master/haskell/rotate-string/rotate-string.hs
https://raw.githubusercontent.com/meganroche/CodeAbbeySolutions/master/Java/ReverseString.java
https://raw.githubusercontent.com/pastelito02/Challenges-sol/master/Programming/Codeabbey/128/kittyaurel.jl
https://raw.githubusercontent.com/McQuinTrix/CodeAbbey/master/30.%20Reverse_String.js
https://raw.githubusercontent.com/chriswood/codeabbey/master/caid30.lisp
https://raw.githubusercontent.com/debuss/Bezier-Curves/master/Bezier/bezier_curve.lua
https://raw.githubusercontent.com/jeilow/codeabbey/master/problem_31.m
https://raw.githubusercontent.com/pastelito02/Challenges-sol/master/Programming/Codeabbey/028/stefan.schmiedl.ml
https://raw.githubusercontent.com/mpeshehonov/Codeabbey/master/practice/%2330/index.php
https://raw.githubusercontent.com/Xzya/CodeAbbeySolutions/master/ReverseString.py
https://raw.githubusercontent.com/John-Russell/CodeAbbey/master/Reverse%20String.rb
https://gist.githubusercontent.com/nobleach/18bf8e63a999a9e2eaa934d0419476ef/raw/e11b34e7839de534427c0f43773976918b9ea4ae/main.rs
https://raw.githubusercontent.com/mmcdon20/code_abbey/master/src/main/scala/Abbey030.scala
https://gist.githubusercontent.com/mebubo/3450086/raw/f23fd8e251c1c0daca5fa23b3748113db66971fc/reverse.sh
https://gist.githubusercontent.com/Thomvis/6829aaadfebba155b0ed/raw/4784941518a06a0799b8bb94ab150c2764632e59/ReverseStringTest.swift
https://raw.githubusercontent.com/exercism/typescript/master/exercises/reverse-string/reverse-string.example.ts
https://gist.githubusercontent.com/PavelGnatyuk/f3e50fd081fb296e798f/raw/b79c88072e073fae6da6113661d9dd16bf67c9ee/Reverse
https://gist.githubusercontent.com/adsp16/2acb4e46e37a4685e1f767db2de482ac/raw/f833a2d04c7cd4a56525876288e4e9ed96cea368/reverseString2Ways
https://gist.githubusercontent.com/antrix1989/c1f450f034537ada3e960967e2cced8e/raw/5a0b4ebbf93e48a28c21afcb766282a04f677a60/Reverse%2520string
https://gist.githubusercontent.com/chrisngene/edeb1a67aa7a008ea299406c5a67d3bb/raw/375139e445fdbf7ce5ffa78c784fe1bac905800e/reverse%2520string
https://gist.githubusercontent.com/dnatag4snippet/4624375/raw/11479729f1114de7345c3e148edd4447c0994ce1/Perl:%2520reverse%2520complement%2520of%2520a%2520DNA%2520string
https://gist.githubusercontent.com/gbery/bc3dae1e349100b0eee441e7db2a1d1c/raw/43fab18efcda2e14ff5ecfe8b37f01488584d4a9/reverse_string
https://gist.githubusercontent.com/javsadi/dc286f0c380167def62133b331a4df57/raw/eaa32339c4123568c29cba9a69c47753d276ad10/Rev%2520Str
https://gist.githubusercontent.com/jyotibajaj/149262c623ac80922136/raw/e72aaee2094754b82fd4f1173d0550afb0b65414/ReversedStringTest
https://gist.githubusercontent.com/rahman99/996c3965366c8304c533f3395098fa11/raw/c03586904dbe8fee262283b3789889235ed8fd4d/Check%2520next%2520char%2520alphabet
https://gist.githubusercontent.com/rajvanshipradeep15/edbed3ba481d6d610e163e53d1d6ee16/raw/85c0a5bea291de9286bb51cedca977d59334f63e/string%2520reversing
https://raw.githubusercontent.com/JesseClarkND/codeabbey_in_C-NET/master/Rotation%20in%202D%20Space
