https://www.arneswinnen.net/2013/09/automated-sql-injection-detection/
https://berr-my.tistory.com/entry/SQL-Injection-2
https://22hz.tistory.com/archive/20160827
http://m.vlambda.com/wz_wPBFzNgGK9.html
