https://raw.githubusercontent.com/zimpha/competitive-programming/master/project-euler/volume01/23.cc
https://raw.githubusercontent.com/mishadoff/project-euler/master/src/project_euler/problem023.clj
https://raw.githubusercontent.com/wce-codepals/hacktoberfest-projecteuler/master/solutions/problem-23/solution.cpp
https://raw.githubusercontent.com/nayuki/Project-Euler-solutions/master/haskell/p023.hs
https://raw.githubusercontent.com/nayuki/Project-Euler-solutions/master/java/p023.java
https://raw.githubusercontent.com/DestructHub/ProjectEuler/master/Problem023/Python/solution_1.py
https://raw.githubusercontent.com/sile/euler.rs/master/euler_00/src/problem023.rs
