https://raw.githubusercontent.com/nayuki/Project-Euler-solutions/master/haskell/p058.hs
https://raw.githubusercontent.com/nayuki/Project-Euler-solutions/master/java/p058.java
https://raw.githubusercontent.com/DestructHub/ProjectEuler/master/Problem058/Python/solution_1.py
https://raw.githubusercontent.com/sile/euler.rs/master/euler_02/src/problem058.rs
