https://gist.githubusercontent.com/soez/930e6964cf5f61f8ebc5d832acb5f4f4/raw/b7999b6e41f5c9f82502dde9948d0579a97770f5/nn8ed%2520-%2520pokedex_nn2k18.py
https://raw.githubusercontent.com/wangray/pwnable_kr/master/aeg/aeg.py
https://gist.githubusercontent.com/soez/7731ed14599cda5104018c710de3a6df/raw/3a363eb567ed0ee3b755badd30a3c9af835104fe/ctf.bsidesdelhi%2520-%2520data_bank.py
https://gist.githubusercontent.com/thejh/8346f47e359adecd1d53/raw/74ea79f8b33d6aaaf4b425c3dbf8530e0ee2bf14/seccomp_ptrace_escape.c
https://raw.githubusercontent.com/0n3m4ns4rmy/ctf-write-ups/master/bsides2018/data_bank/exploit.py
https://raw.githubusercontent.com/0n3m4ns4rmy/ctf-write-ups/master/bsides2018/easypeasy/exploit.py
https://raw.githubusercontent.com/str8outtaheap/heapwn/master/AceBear/easy_heap/pwn.py
https://raw.githubusercontent.com/str8outtaheap/heapwn/master/AceBear/lolgame/pwn.py
https://raw.githubusercontent.com/str8outtaheap/heapwn/master/AceBear/memo_heap/pwn.py
https://github.com/s1syphu5/RootMe-Challenges/tree/master/System/ELF%20x86%20-%20Stack%20buffer%20overflow%20basic%203
