https://www.youtube.com/watch?v=6tV8EuaHI9M
https://www.youtube.com/watch?v=fV0qsqcScI4
https://www.youtube.com/watch?v=IDQAj09fBvI
https://www.youtube.com/watch?v=c50KFQTq-dk
https://www.youtube.com/watch?v=GjRVa1vxXJE&t=7s
https://www.youtube.com/watch?v=nhZoxYH0ZfA
https://www.youtube.com/watch?v=WhzxuBA26o4
https://www.youtube.com/watch?v=5ZDSPVp1TpM
https://www.youtube.com/watch?v=_ShrVauPSLA
https://www.youtube.com/watch?v=7fYbkqYsXns
