https://raw.githubusercontent.com/StevenDunn/CodeEval/master/DetectingCycles/c/dc.c
https://raw.githubusercontent.com/StevenDunn/CodeEval/master/DetectingCycles/cpp/DetectingCycles.cpp
https://raw.githubusercontent.com/koshkarov/solutions-for-codeeval-tasks/master/DetectingCycles.cs
https://raw.githubusercontent.com/mpillar/codeeval/master/1-moderate/detecting-cycles/DetectingCycles.java
https://raw.githubusercontent.com/schrodervictor/codeeval-challenges/master/moderate/Detecting-Cycles/solution-rev-1.php
https://gist.githubusercontent.com/yuheiomori/2669971/raw/bfcdd8892875c2049485d855e2f6b461784dd65a/detecting_cycles.py
https://gitlab.com/agaskell/codeeval/-/raw/master/5/5.rb
