https://raw.githubusercontent.com/StevenDunn/CodeEval/master/StringMask/c/sm.c
https://raw.githubusercontent.com/StevenDunn/CodeEval/master/StringMask/cpp/sm.cpp
https://raw.githubusercontent.com/AvetisG/CodeEval/master/01%20-%20Easy/C%23/StringMask/StringMaskSolution.cs
https://raw.githubusercontent.com/mneudert/codeeval/master/easy/string-mask/js.js
https://raw.githubusercontent.com/mpillar/codeeval/master/0-easy/string-mask/main.py
