https://raw.githubusercontent.com/SQZ777/Codewars_HumanReadableTime/master/Codewars_HumanReadableTime/UnitTest1.cs
https://raw.githubusercontent.com/xehpuk/codewars/master/human-readable-time/java/1/HumanReadableTime.java
https://raw.githubusercontent.com/tangweikun/codewars/master/src/4kyu/Human%20readable%20duration%20format/pro.js
https://raw.githubusercontent.com/handracs2007/codewars_human_readable_time_kotlin/master/src/TimeFormatter.kt
https://gitlab.com/qamine-test/codewars/-/raw/master/kyu_4/human_readable_duration_format/format_duration.py
https://raw.githubusercontent.com/willhowes/human_readable_time/master/spec/human_readable_time_spec.rb
