https://raw.githubusercontent.com/feix/ctf-writeup/master/canyouhackit/cryptography/solution2
http://juancho056.blogspot.com/search/label/crypto%20Challenge%202
https://raw.githubusercontent.com/pastelito02/Challenges-sol/master/canyouhackit/Crypto/solution02
