https://www.imuo.com/a/b38bed3d14dc12471653709e896a07f3633443feb0410e79a7383ea3c57ba5aa
https://appspider.help.rapid7.com/docs/conducting-a-basic-test-manually-against-hackazon
https://raw.githubusercontent.com/rapid7/hackazon/master/VULNERABILITIES.md
