https://infamoussyn.com/2014/02/05/overthewire-natas-level-0-16-writeup-updated/#level11
http://r4stl1n.github.io/2014/12/27/OverTheWire-Natas8-16.html#natas-11
https://raw.githubusercontent.com/luceatnobis/challenges/master/overthewire.org/natas/11/wat.php
https://raw.githubusercontent.com/lv22/otw-natas/master/L11/level11.py
https://routley.io/tech/2017/06/17/natas.html
https://medium.com/@m.f.m.barber/natas-11-and-reverse-engineering-xor-encryption-6133bca7cf64
https://www.youtube.com/watch?v=1IBuV6_Ol28&t=1342s
https://manintheit.org/security/solutions-of-natas-1-15/
