https://raw.githubusercontent.com/Cheshulko/Algorithms/master/Leetcode/BinaryTreeLevelOrderTraversalII.cpp
https://raw.githubusercontent.com/Rikin04/leetcode/master/0107.binary-tree-level-order-traversal-ii/binary-tree-level-order-traversal-ii.java
https://raw.githubusercontent.com/MrErHu/Leetcode/master/algorithms/107.Binary%20Tree%20Level%20Order%20Traversal%20II/Binary%20Tree%20Level%20Order%20Traversal%20II.js
