https://raw.githubusercontent.com/octonion/recursion/master/awk/outcomes.awk
https://raw.githubusercontent.com/seamplex/libreblackjack/master/src/player.c
https://raw.githubusercontent.com/frgorp/cobol-blackjack/master/blackjack.cbl
https://raw.githubusercontent.com/pastelito02/Challenges-sol/master/Programming/Codeabbey/042/Maxim-Ivanov.cc
https://raw.githubusercontent.com/brennonyork/blackjack/master/src/blackjack/game.clj
https://raw.githubusercontent.com/BrunoRB/algorithms.coffee/master/src/graph/cycle-detection.coffee
https://raw.githubusercontent.com/DionysiosB/CodeAbbey/master/BlackjackCounting.cpp
https://raw.githubusercontent.com/gdonald/blackjack-cr/master/lib/game.cr
https://raw.githubusercontent.com/AleksandrSD/CodeAbbeyProblems/master/Problem42/Program.cs
https://raw.githubusercontent.com/Asti7/card_counter/master/card_counter/lib/main_page.dart
https://raw.githubusercontent.com/timjdinkins/blackjack/master/src/player.erl
https://raw.githubusercontent.com/octonion/recursion/master/fortran-c/outcomes.f90
https://raw.githubusercontent.com/johnfredswift/CodeAbbey/master/ProblemsCode/BlackjackCounting.go
https://raw.githubusercontent.com/pastelito02/Challenges-sol/master/Programming/Codeabbey/042/lambda_hask.hs
https://raw.githubusercontent.com/cameronmcnz/rock-paper-scissors/master/game.html
https://raw.githubusercontent.com/igor-kutepov/codeabbey/master/src/main/java/com/kutepov/samples/codeabbey/BlackjackCounting.java
https://raw.githubusercontent.com/pastelito02/Challenges-sol/master/Programming/Codeabbey/042/mmarulandafluid.jl
https://raw.githubusercontent.com/Rafase282/My-FreeCodeCamp-Code/master/Checkpoints/Checkpoint%20Counting%20Cards.js
https://gitlab.com/Rudecat/code-challenges/-/raw/master/01_DuplicateCount/src/main/kotlin/Application.kt
https://raw.githubusercontent.com/pastelito02/Challenges-sol/master/Programming/Codeabbey/042/Anusha-Nagesh.lisp
https://raw.githubusercontent.com/pastelito02/Challenges-sol/master/Programming/Codeabbey/042/memstick.lua
https://raw.githubusercontent.com/jeilow/codeabbey/master/problem_41.m
https://raw.githubusercontent.com/EQuimper/CodeChallenge/master/javascript/FreeCodeCamps/Basic%20JavaScript/Counting%20Cards.md
https://raw.githubusercontent.com/pastelito02/Challenges-sol/master/Programming/Codeabbey/042/stefan.schmiedl.ml
https://gist.githubusercontent.com/lkingsford/845254/raw/667c6b010d034019b982941a7e1b6d83ed6fae37/BlackJack.pas
https://raw.githubusercontent.com/Kimbsy/nd6/master/nd6.pde
https://raw.githubusercontent.com/pastelito02/Challenges-sol/master/Programming/Codeabbey/042/vsmihaylovsky.php
https://raw.githubusercontent.com/pastelito02/Challenges-sol/master/Programming/Codeabbey/042/pearl_barley.pl
https://raw.githubusercontent.com/ValeWasTaken/CodeAbbey_Solutions/master/Python/id042-Blackjack_Counting.py
https://gitlab.com/rypervenche/challenges/-/raw/master/code-army/05-hex-to-rgb.raku
https://raw.githubusercontent.com/pastelito02/Challenges-sol/master/Programming/Codeabbey/042/maverick.rb
https://raw.githubusercontent.com/seifriedc/blackjack-rust/master/src/main.rs
https://raw.githubusercontent.com/mmcdon20/code_abbey/master/src/main/scala/Abbey042.scala
https://raw.githubusercontent.com/naterubin/dice/master/dice.scm
https://gitlab.com/silvanvogel/codingame/-/raw/master/Bash/easy/horse-racing-duals.sh
https://raw.githubusercontent.com/gamblinflanagan/Dice/master/Dice/ViewController.swift
https://raw.githubusercontent.com/Bwca/shift-cipher/master/src/index.ts
https://raw.githubusercontent.com/pastelito02/Challenges-sol/master/Programming/Codeabbey/042/Guy-Gervais.vb
https://raw.githubusercontent.com/JesseClarkND/codeabbey_in_C-NET/master/Blackjack%20Counting
