https://raw.githubusercontent.com/rdtsc/codeeval-solutions/master/src/hard/largest-sub-matrix/solutions/c/solution.c
https://raw.githubusercontent.com/rdtsc/codeeval-solutions/master/src/hard/largest-sub-matrix/solutions/c%2B%2B/solution.cpp
https://raw.githubusercontent.com/mpillar/codeeval/master/2-hard/largest-sub-matrix/main.py
