https://raw.githubusercontent.com/PlatyPew/picoctf-2018-writeup/master/Cryptography/Crypto%20Warmup%202/README.md
https://aaronlynnsmith.blogspot.com/2019/09/picoctf2018-crypto-crypto-warmup-2.html
https://ctftime.org/writeup/13266
https://delayma.wordpress.com/2019/02/01/crypto-warmup-2-picoctf-18/
https://nikolaskama.me/picoctf-2018-crypto-writeups/#cryptowarmup275
https://raw.githubusercontent.com/mzfr/ctf-writeups/master/picoCTF-2018/Cryptography/Crypto%20Warmup%202/readme.md
https://tcode2k16.github.io/blog/posts/picoctf-2018-writeup/cryptography/#solution-1
https://www.youtube.com/watch?v=8bEGpxyVFgA
https://www.youtube.com/watch?v=oWga7xmMsog
https://www.youtube.com/watch?v=-qBba9fAYdQ
https://www.xoru.net/bas-groothedde/article/picoctf-2018-writeup-for-problems-1-through-10.html
