https://eugenekolo.com/blog/csaw-qual-ctf-2016/#neo
https://eugenekolo.com/blog/pwn2win-2016-python-tokens-writeup/
https://eugenekolo.com/blog/internetwache-2016-ctf-writeups/#serverfarm
https://jaiguptanick.github.io/Blog/blog/DawgCTF2020Writeup/
https://livingbeef.blogspot.com/2020/04/sfr-hexionctf-we-get-some-webapp.html
https://raw.githubusercontent.com/ctfs/write-ups-2018/master/nsec-2018/reverse/babyre0-1/README.md
https://raw.githubusercontent.com/birdsoup/CTF-Writeups/master/2016/CSAW/Warmup/README.md
https://raw.githubusercontent.com/birdsoup/CTF-Writeups/master/2016/CSAW/Tutorial/README.md
https://raw.githubusercontent.com/birdsoup/CTF-Writeups/master/2016/CSAW/mfw/README.md
https://raw.githubusercontent.com/birdsoup/CTF-Writeups/master/2016/CSAW/Fuzyll/README.md
