https://raw.githubusercontent.com/vpnguy-zz/RandomPrimeSearch/master/RandomPrimeSearch.asm
https://raw.githubusercontent.com/lllllll-llll-llllll/codeabbey_autoit/master/61.au3
https://raw.githubusercontent.com/tliesnham/primec/master/prime.c
https://raw.githubusercontent.com/hypirion/primes/master/src/clojure/com/hypirion/primes.clj
https://gist.githubusercontent.com/rickosborne/5789677/raw/ce89f496616f9920d75306fcc9abd7c4db483983/primes.coffee
https://raw.githubusercontent.com/gravoo/codeabbey/master/Prime%20Numbers%20Generation%20.cpp
https://raw.githubusercontent.com/wontruefree/prime/master/src/prime.cr
https://raw.githubusercontent.com/AleksandrSD/CodeAbbeyProblems/master/Problem61/Program.cs
https://raw.githubusercontent.com/SethSBerman/PrimeNum/master/source/primeGenerator.d
https://raw.githubusercontent.com/MarcelWaldvogel/Prime-Sieve-Dart/master/lib/prime_sieve_dart.dart
https://raw.githubusercontent.com/jcclinton/large-safe-prime-generator/master/src/prime_server.erl
https://raw.githubusercontent.com/MiyamotoAkira/primes_generator/master/mix.exs
https://raw.githubusercontent.com/abcoates/fsharp-prime-numbers/master/PrimeNumbers.fs
https://gist.githubusercontent.com/rickosborne/5789677/raw/ce89f496616f9920d75306fcc9abd7c4db483983/primes.go
https://raw.githubusercontent.com/sebfisch/primes/master/Data/Numbers/Primes.hs
https://raw.githubusercontent.com/emafazillah/codeabbey/master/src/problem061To070/PrimeNumbersGeneration.java
https://raw.githubusercontent.com/JuliaMath/Primes.jl/master/src/Primes.jl
https://raw.githubusercontent.com/21-Coding/Primes/master/js/scripts.js
https://raw.githubusercontent.com/goonerpi/PrimeNumbGenerator/master/src/Generator.kt
https://gist.githubusercontent.com/obikag/6617474/raw/3bfdee4a11f7d14b10621e1ff56d21a9c9817772/Prime.lua
https://raw.githubusercontent.com/xmall75/primes/master/primes.pas
https://raw.githubusercontent.com/vonmecheln/prime-numbers/master/primo.php
https://raw.githubusercontent.com/gitpan/Acme-MathProfessor-RandomPrime/master/lib/Acme/MathProfessor/RandomPrime.pm
https://raw.githubusercontent.com/Xzya/CodeAbbeySolutions/master/PrimeNumbersGeneration.py
https://raw.githubusercontent.com/andyywz3/prime_numbers/master/prime_numbers.rb
https://raw.githubusercontent.com/wackywendell/primes/master/src/lib.rs
https://raw.githubusercontent.com/mmcdon20/code_abbey/master/src/main/scala/Abbey061.scala
https://gist.githubusercontent.com/tobias-khs/49bf1b1580b4345106cc849682e71150/raw/8e29335d65dd2217971c0cae3763bfec2b7c0a0e/generate_prime.sh
https://raw.githubusercontent.com/gsurma/prime_numbers_generator/master/PrimeNumberGenerator/PrimeNumbers.swift
https://raw.githubusercontent.com/greenhol/GimmePrime/master/gimmePrimes.ts
https://raw.githubusercontent.com/JesseClarkND/codeabbey_in_C-NET/master/Prime%20Numbers%20Generation
