https://floreaiulianpfa.com/agent-sudo-ctf-try-hack-me/
https://www.youtube.com/watch?v=jxveUbnOiYk
https://blog.qz.sg/agent-sudo-ctf-tryhackme/
https://sckull.github.io/posts/agent_sudo/
https://github.com/ArianeBlow/ArianeBlow/wiki/Agent-sudo-FR-walktrough
