https://hackingresources.com/dc-3-vulnhub-walkthrough/
https://medium.com/@takshil.patil529/dc-3-vulnhub-walkthrough-17c4f69afca2
https://medium.com/infosec-adventures/dc-3-walkthrough-37fc4507107b
https://www.sevenlayers.com/index.php/197-vulnhub-dc-3-walkthrough
