https://raw.githubusercontent.com/pastelito02/Challenges-sol/master/Programming/Codeabbey/088/Hennes.hs
https://raw.githubusercontent.com/igor-kutepov/codeabbey/master/src/main/java/com/kutepov/samples/codeabbey/PitchAndNotes.java
https://raw.githubusercontent.com/pastelito02/Challenges-sol/master/Programming/Codeabbey/088/Zacharias.jl
https://raw.githubusercontent.com/pastelito02/Challenges-sol/master/Programming/Codeabbey/088/matthias.js
https://raw.githubusercontent.com/pastelito02/Challenges-sol/master/Programming/Codeabbey/088/memstick.lua
https://raw.githubusercontent.com/pastelito02/Challenges-sol/master/Programming/Codeabbey/088/KOR_Ryat.php
https://raw.githubusercontent.com/pastelito02/Challenges-sol/master/Programming/Codeabbey/088/mykola_kozlenko.py
https://raw.githubusercontent.com/pastelito02/Challenges-sol/master/Programming/Codeabbey/088/maverick.rb
https://raw.githubusercontent.com/pastelito02/Challenges-sol/master/Programming/Codeabbey/088/mcferden.rs
https://raw.githubusercontent.com/pastelito02/Challenges-sol/master/Programming/Codeabbey/088/bluknite.scala
https://raw.githubusercontent.com/pastelito02/Challenges-sol/master/Programming/Codeabbey/088/Guy-Gervais.vb
https://raw.githubusercontent.com/JesseClarkND/codeabbey_in_C-NET/master/Pitch%20and%20Notes
