https://raw.githubusercontent.com/pastelito02/Challenges-sol/master/Programming/codewars/grasshopper-messi-goals-function/Unnamed.c
https://raw.githubusercontent.com/pastelito02/Challenges-sol/master/Programming/codewars/grasshopper-messi-goals-function/arisser.cc
https://raw.githubusercontent.com/pastelito02/Challenges-sol/master/Programming/codewars/grasshopper-messi-goals-function/kebien6020.clj
https://raw.githubusercontent.com/pastelito02/Challenges-sol/master/Programming/codewars/grasshopper-messi-goals-function/TheLamia.coffee
https://raw.githubusercontent.com/pastelito02/Challenges-sol/master/Programming/codewars/grasshopper-messi-goals-function/arisser.cpp
https://raw.githubusercontent.com/pastelito02/Challenges-sol/master/Programming/codewars/grasshopper-messi-goals-function/Unnamed.cr
https://raw.githubusercontent.com/pastelito02/Challenges-sol/master/Programming/codewars/grasshopper-messi-goals-function/martyft.cs
https://raw.githubusercontent.com/pastelito02/Challenges-sol/master/Programming/codewars/grasshopper-messi-goals-function/muhammadkhalikov.dart
https://raw.githubusercontent.com/pastelito02/Challenges-sol/master/Programming/codewars/grasshopper-messi-goals-function/megawatt.ex
https://raw.githubusercontent.com/pastelito02/Challenges-sol/master/Programming/codewars/grasshopper-messi-goals-function/megawatt.exs
https://raw.githubusercontent.com/pastelito02/Challenges-sol/master/Programming/codewars/grasshopper-messi-goals-function/asedov.go
https://raw.githubusercontent.com/pastelito02/Challenges-sol/master/Programming/codewars/grasshopper-messi-goals-function/iozoo.hs
https://raw.githubusercontent.com/pastelito02/Challenges-sol/master/Programming/codewars/grasshopper-messi-goals-function/nestorojeda.java
https://raw.githubusercontent.com/pastelito02/Challenges-sol/master/Programming/codewars/grasshopper-messi-goals-function/psmilliorn.jl
https://raw.githubusercontent.com/pastelito02/Challenges-sol/master/Programming/codewars/grasshopper-messi-goals-function/henkler.js
https://raw.githubusercontent.com/pastelito02/Challenges-sol/master/Programming/codewars/grasshopper-messi-goals-function/maha77.php
https://raw.githubusercontent.com/pastelito02/Challenges-sol/master/Programming/codewars/grasshopper-messi-goals-function/Rauwomos.pro
https://raw.githubusercontent.com/pastelito02/Challenges-sol/master/Programming/codewars/grasshopper-messi-goals-function/ElterZ.py
https://raw.githubusercontent.com/pastelito02/Challenges-sol/master/Programming/codewars/grasshopper-messi-goals-function/charliewhu.r
https://raw.githubusercontent.com/pastelito02/Challenges-sol/master/Programming/codewars/grasshopper-messi-goals-function/leo1021.rb
https://raw.githubusercontent.com/pastelito02/Challenges-sol/master/Programming/codewars/grasshopper-messi-goals-function/AZagatti.re
https://raw.githubusercontent.com/pastelito02/Challenges-sol/master/Programming/codewars/grasshopper-messi-goals-function/nitin12.sh
https://raw.githubusercontent.com/pastelito02/Challenges-sol/master/Programming/codewars/grasshopper-messi-goals-function/Unnamed.ts
