12 1673 2074
17
384 447
320 276
105 215
274 319
327 517
148 365
388 417
369 126
161 270
153 379
285 329
187 309
124 482
270 361
227 151
292 193
339 250
17
222 366
244 360
156 242
110 157
247 216
222 268
212 187
151 172
292 258
159 329
280 164
282 267
148 128
183 197
142 351
207 136
195 537
16
147 136
184 251
205 192
106 139
173 216
133 165
195 190
83 426
155 132
174 143
209 158
194 210
182 184
113 206
161 179
116 185
12
496 262
172 276
749 670
353 176
197 265
448 571
386 351
491 648
177 574
391 501
189 467
304 557
16
181 169
149 134
202 188
189 163
150 173
118 207
149 257
201 205
120 208
105 171
136 236
194 144
114 249
107 130
141 155
172 231
15
192 517
294 410
343 418
157 484
196 150
364 241
350 273
126 532
393 167
267 141
184 498
405 412
365 519
315 452
132 514
16
380 354
140 216
159 170
115 132
291 284
187 291
105 272
303 365
182 282
184 142
233 198
283 358
266 248
207 241
162 224
182 268
13
493 292
408 365
378 413
195 534
391 609
342 455
342 236
419 943
288 415
377 623
313 243
191 287
494 207
12
214 197
278 216
28 192
192 339
253 341
159 312
229 333
256 210
143 299
210 346
226 289
279 181
13
253 571
282 540
405 311
270 605
303 219
216 355
489 362
338 199
414 391
306 494
289 358
511 575
287 550
17
125 382
108 439
166 245
281 478
104 181
238 324
384 144
127 188
341 405
119 265
293 159
373 875
292 376
215 230
178 271
176 271
360 197
17
174 219
161 127
110 222
163 353
259 140
297 285
245 352
244 279
259 305
272 314
130 186
8 262
141 271
161 333
294 294
125 234
164 339
