https://raw.githubusercontent.com/aman212006/Fibonacci_Program_C/master/Fibonacci.c
https://raw.githubusercontent.com/pastelito02/Challenges-sol/master/Programming/Codeabbey/071/gleb_kosyrev.cc
https://raw.githubusercontent.com/DionysiosB/CodeAbbey/master/FibonacciDivisibilityAdvanced.cpp
https://raw.githubusercontent.com/pastelito02/Challenges-sol/master/Programming/Codeabbey/071/silentsoul.cs
https://raw.githubusercontent.com/pastelito02/Challenges-sol/master/Programming/Codeabbey/071/Hennes.hs
https://raw.githubusercontent.com/igor-kutepov/codeabbey/master/src/main/java/com/kutepov/samples/codeabbey/FibonacciDivisibilityAdvanced.java
https://raw.githubusercontent.com/pastelito02/Challenges-sol/master/Programming/Codeabbey/071/sevarozhkov.js
https://raw.githubusercontent.com/pastelito02/Challenges-sol/master/Programming/Codeabbey/071/alestorm980.lua
https://raw.githubusercontent.com/shivamsharma612/FibonacciBuzzFizz/master/fibonacci.m
https://raw.githubusercontent.com/pastelito02/Challenges-sol/master/Programming/Codeabbey/071/KOR_Ryat.php
https://raw.githubusercontent.com/pastelito02/Challenges-sol/master/Programming/Codeabbey/071/pearl_barley.pl
https://raw.githubusercontent.com/ValeWasTaken/CodeAbbey_Solutions/master/Python/id071-Fibonacci_Divisibility_Advanced.py
https://raw.githubusercontent.com/pastelito02/Challenges-sol/master/Programming/Codeabbey/071/Unihedron.rb
https://gitlab.com/CodeArtisan/codeabbey/raw/master/problem_71/solution.rkt
https://raw.githubusercontent.com/pastelito02/Challenges-sol/master/Programming/Codeabbey/071/scala_scholar.scala
https://raw.githubusercontent.com/pastelito02/Challenges-sol/master/Programming/Codeabbey/071/hamza772000.vb
https://pastebin.com/raw/2hVwRKRB
https://pastebin.com/raw/4x8MY3Ab
https://pastebin.com/raw/7grfVMiq
https://pastebin.com/raw/TUgW5RPR
https://pastebin.com/raw/dSwLM6vw
https://pastebin.com/raw/eRPMfzza
https://pastebin.com/raw/nw25NgyF
https://pastebin.com/raw/vZmsXrJ3
https://pastebin.com/raw/xPhh68dA
https://pastebin.com/raw/yipT7fRD
https://raw.githubusercontent.com/JesseClarkND/codeabbey_in_C-NET/master/Fibonacci%20Divisibility%20Advanced
