https://raw.githubusercontent.com/ozan/solutions/master/hackerrank/divisible-sum-pairs.c
https://raw.githubusercontent.com/BlakeBrown/HackerRank-Solutions/master/Algorithms/Implementation/Divisible%20Sum%20Pairs.cpp
https://raw.githubusercontent.com/RyanFehr/HackerRank/master/Algorithms/Implementation/Divisible%20Sum%20Pairs/Solution.cs
https://raw.githubusercontent.com/rishabh1403/hackerrank-golang-solutions/master/practice/algorithms/implementation/divisible-sum-pairs.go
https://raw.githubusercontent.com/RyanFehr/HackerRank/master/Algorithms/Implementation/Divisible%20Sum%20Pairs/Solution.java
https://raw.githubusercontent.com/matinfazli/HackerRank/master/algorithms/02-implementation/06-divisible-sum-pairs/solution.js
https://raw.githubusercontent.com/danhenriquesc/hackerrank/master/algorithms/implementation/divisible_sum_pairs.php
https://raw.githubusercontent.com/saleem-hadad/hackerrank/master/Divisible%20Sum%20Pairs.py
https://raw.githubusercontent.com/marioluan/hacker-rank-solved-problems/master/algorithms/implementation/divisible-sum-pairs.rb
https://raw.githubusercontent.com/Charliekenney23/hackerrank-swift/master/Algorithms/Implementation/Divisible%20Sum%20Pairs/DivisibleSumPairs.swift
