https://raw.githubusercontent.com/saleem-hadad/hackerrank/master/Birthday%20Chocolate.c
https://raw.githubusercontent.com/danhenriquesc/hackerrank/master/algorithms/implementation/birthday_chocolate.cpp
https://raw.githubusercontent.com/RyanFehr/HackerRank/master/Algorithms/Implementation/Birthday%20Chocolate/Solution.cs
https://raw.githubusercontent.com/charles-wangkai/hackerrank/master/the-birthday-bar/Solution.java
https://raw.githubusercontent.com/143cracker/birthday-chocolate.py-/master/birthday.py
https://raw.githubusercontent.com/raghav97/Hackerrank-Solutions/master/birthday_chocolate.rb
