https://raw.githubusercontent.com/feix/ctf-writeup/master/canyouhackit/script/solution1
https://sithlab.tistory.com/1440
https://raw.githubusercontent.com/pastelito02/Challenges-sol/master/canyouhackit/Scripts/solution1.lst
