https://raw.githubusercontent.com/codejoydo/codeforces/master/112a.c
https://raw.githubusercontent.com/nikzsaz/Codeforces-solution/master/112A-PatyaAndString.cpp
https://raw.githubusercontent.com/yeicol/CodeForces/master/CF112APetyaAndStrings.java
