19
18 18 3 18 11 19 6 14 5 11 9 17 11 16 19 8 4 7 4 5 8 4 8 4 13 6 18 13 12 8 8
6 9 9 15 8 14 9 11 5 17 9 15 14 8 4 16 14 6 19 3 9 8 6 3 12 5 14
11 2 14 15 9 3 11 16 15 19 8 19 16 15 15 10 4 17 7 17 4 6 19
13 6 13 6 9 8 9 19 8 3 15 16 5 6 13 19 6 19 19 3 15 15 11 17 12 17 15 15 3
7 15 19 19 19 9 7 8 8 14 10 3 10 14 8 4 14 12 3 13 13 16 8 5 14 19 2 9 15 4 4
17 3 2 16 10 7 5 17 2 13 18 10 8 7 13 2 17 14 13 11
2 14 5 2 15 12 15 17 15 16 15 17 16 12 8 4 15 5 4 9 4 12 15 9 6 15 7
9 16 9 9 10 12 10 6 5 5 3 18 19 17 16 15 9 4 17 4 7 19 11 9 12 7 17 16 3 4 15 10 18 4
9 14 8 13 18 11 15 16 10 12 12 6 19 14 4 4 2 3 14 10 14 19 7 10 2 10 5 11 8 8 9 16 2 16
18 7 6 15 16 16 8 3 16 3 5 19 4 6 13 12 19 13 18 9 13 8 13 4 15 19 12
2 8 2 19 14 6 15 10 3 3 12 18 5 15 17 7 2 10 17 19 3 16 9 15 4 2 18 18
10 10 2 16 10 2 10 15 15 19 16 17 11 15 2 6 12 7 7 3
6 4 2 13 18 5 14 16 3 14 6 11 15 3 2 15 12 16 11 11 13 8 3
9 8 18 15 13 2 19 18 4 19 11 3 4 5 17 5 18 4 15 13 5 16 9 15 12
7 6 7 9 12 14 15 11 9 9 11 8 7 14 8 16 15 10 2 13 14 18 15 9 12 18 6 2 14 17 18 2 3 6 9
19 4 5 8 12 15 15 17 9 3 13 5 12 14 16 6 13 11 14 5 10 18 5 5 16 4 5 17 9 12
8 15 14 15 7 10 11 4 17 12 16 2 4 11 17 9 4 9 3 8 17 2 12 3 16 14 6 13
17 5 10 12 18 5 18 8 14 3 5 7 18 6 10 9 4 17 12 11 19
9 19 10 10 15 5 15 9 8 12 12 16 5 10 2 3 16 15 5 2 3 4 7 11 11 9 9 4 19 8 3 8 8 12
