https://www.youtube.com/watch?v=0_AN5FKsxaw
https://computersecuritystudent.com/SECURITY_TOOLS/MUTILLIDAE/MUTILLIDAE_2511/lesson5/index.html
https://computersecuritystudent.com/SECURITY_TOOLS/MUTILLIDAE/MUTILLIDAE_2511/lesson9/index.html
https://www.securitynik.com/2017/02/beginning-web-application-testing-sql.html
http://edublog.bitcrack.net/2016/10/mutillidae-owasp-top-10-a1-injection.html
https://www.irongeek.com/i.php?page=videos/web-application-pen-testing-tutorials-with-mutillidae#basics-of-sql-injection-timing-attacks
https://www.irongeek.com/i.php?page=videos/web-application-pen-testing-tutorials-with-mutillidae#basics-of-sql-injection-using-union
https://dtike.wordpress.com/2012/08/29/mutillidae-basic-sql-injection/
https://sites.google.com/site/iasoncs/home/web-security/mutillidae-security
http://suraj-raghuvanshi.blogspot.com/2014/05/blind-sql-injection-for-forms-fields.html
https://null-byte.wonderhowto.com/how-to/attack-web-applications-with-burp-suite-sql-injection-0184090/
https://www.thecybersploit.com/2019/02/owasp-sql-injection-authentication.html
https://www.youtube.com/watch?v=rQ6R4B9m-nk&list=RDCMUCPeJcqbi8v46Adk59plaaXg&index=2
https://matrixlabsblog.wordpress.com/2019/04/14/owasp-mutillidae-walkthrough/
