https://raw.githubusercontent.com/nayuki/Project-Euler-solutions/master/java/p050.java
https://raw.githubusercontent.com/DestructHub/ProjectEuler/master/Problem050/Python/solution_slow_1.py
https://raw.githubusercontent.com/sile/euler.rs/master/euler_01/src/problem050.rs
