https://github.com/bsqrl/juice-shop-walkthrough#26-forge-a-coupon-code-that-gives-you-a-discount-of-at-least-80
https://github.com/apox64/OWASP-Juice-Shop-Write-Up/blob/master/juice-shop-writeup.md#35-forge-a-coupon-code-that-gives-you-a-discount-of-at-least-80
https://github.com/bkimminich/pwning-juice-shop/blob/master/appendix/solutions.md#forge-a-coupon-code-that-gives-you-a-discount-of-at-least-80
http://m4l1ce.me/writeups/2017/01/09/juice-shop.html
https://raw.githubusercontent.com/apox64/OWASP-Juice-Shop-Write-Up/master/juice-shop-writeup.md
https://bkimminich.gitbooks.io/pwning-owasp-juice-shop/content/appendix/solutions.html
