https://raw.githubusercontent.com/leeychee/hackerrank/master/practice/algorithms/implementation/happy_laddybugs/main.go
https://raw.githubusercontent.com/charles-wangkai/hackerrank/master/happy-ladybugs/Solution.java
https://raw.githubusercontent.com/raghav97/Hackerrank-Solutions/master/happy_ladybugs.rb
