https://www.youtube.com/watch?v=eatOlHdmNp4
https://cysecguide.blogspot.com/2018/05/root-me-write-up-javascript.html
https://hackinblood.lasermark.co/web-client-root-me/
https://www.youtube.com/watch?v=P9RhOKJ8e60
https://www.youtube.com/watch?v=I9-lh-a8pr8
https://phamcongit.wordpress.com/2017/09/27/challenge-3-root-me-javascript-authentication-2/
https://powerprove.tistory.com/entry/rootmeorg-web-client-Javascript-Authentication-2
https://jgkang.space/security/write-up/root-me.org/web-client/2018/04/12/root-me-org-javascript-authentication-2.html
https://secure-key.tistory.com/35
