https://raw.githubusercontent.com/cloudcell/2048_4ML/master/R/2048_4ML.R
https://raw.githubusercontent.com/rak13/2048-Assembly/master/2048%20Final.asm
https://raw.githubusercontent.com/yboyer/2048.c/master/2048.c
https://raw.githubusercontent.com/jclaggett/game2048/master/src/game2048/core.cljx
https://raw.githubusercontent.com/yerzhan7/2048/master/2048/2048.cpp
https://raw.githubusercontent.com/kflu/2048/master/2048.cs
https://raw.githubusercontent.com/sabhishek78/game_2048/master/lib/game_logic.dart
https://raw.githubusercontent.com/stepheneb/elm-2048/master/src/Main.elm
https://raw.githubusercontent.com/drewfravert/2048/master/lib/game.ex
https://raw.githubusercontent.com/charpi/F2048/master/F2048/Droid_2048/MainActivity.fs
https://raw.githubusercontent.com/m4ns0ur/2048/master/2048.go
https://raw.githubusercontent.com/Javran/h2048/master/src/Game/H2048/Core.hs
https://raw.githubusercontent.com/tikkanz/2048/master/engine.ijs
https://raw.githubusercontent.com/igor-kutepov/codeabbey/master/src/main/java/com/kutepov/samples/codeabbey/GameOf2048.java
https://raw.githubusercontent.com/xiaodaigh/Game2048.jl/master/game.jl
https://raw.githubusercontent.com/AlaeddineMessadi/2048-html-Javascript/master/assets/js/script.js
https://raw.githubusercontent.com/DarkLBP/Game2048-GameOfFifteen/master/Games/Task/src/games/game2048/Game2048.kt
https://raw.githubusercontent.com/lovasoa/2048.lua/master/main.lua
https://raw.githubusercontent.com/edubart/nelua-game2048/master/game2048.nelua
https://raw.githubusercontent.com/JensBorrisholt/2048/master/MainU.pas
https://raw.githubusercontent.com/Reyurnible/processing2048/master/processing2048.pde
https://raw.githubusercontent.com/Darkxell/2048-in-php/master/2048.php
https://raw.githubusercontent.com/acidnik/2048pl/master/2048.pl
https://raw.githubusercontent.com/kudrykun/2048/master/2048.pro
https://raw.githubusercontent.com/chiroptical/purescript-2048/master/src/Component/Board.purs
https://raw.githubusercontent.com/Xzya/CodeAbbeySolutions/master/GameOf2048.py
https://raw.githubusercontent.com/davidseres/R2048/master/R2048.r
https://raw.githubusercontent.com/crowell/2048-ruby/master/2048.rb
https://raw.githubusercontent.com/alyeffy/DeuxExponential/master/DeuxExponential.rkt
https://raw.githubusercontent.com/adrienball/2048-rs/master/src/game.rs
https://raw.githubusercontent.com/vitalyg/2048/master/TwentyFortyEight.scala
https://raw.githubusercontent.com/robin/2048_Playground/master/2048.playground/Contents.swift
https://raw.githubusercontent.com/Neil-Ni/ng2-2048/master/gulpfile.ts
https://raw.githubusercontent.com/thery/T2048/master/T2048.v
https://raw.githubusercontent.com/dokson/2048-DE1/master/Game.vhd
https://raw.githubusercontent.com/JesseClarkND/codeabbey_in_C-NET/master/Game%20of%202048
