https://www.hacknos.com/monitoring-vulnhub-walkthrough/
https://0xatom.github.io/vulnhub/2020/09/18/monitoring/
https://www.youtube.com/watch?v=ftN30lQcNWc
https://atinfosec.medium.com/monitoring-1-vulnhub-machine-writeup-d01c9e23b237
https://www.youtube.com/watch?v=auBdvTaIUwY
https://www.aldeid.com/wiki/VulnHub-Monitoring-1
