https://www.youtube.com/watch?v=mF5sCBM2lho
https://hackthissitesoltution.wordpress.com/category/basic-missions/
http://5h1vang.blogspot.com/2013/08/hackthissiteorg-basic-challenge-7.html
http://sp4hack.blogspot.com/2012/09/hack-this-site-basic-7.html
http://crackandsecure.blogspot.com/2011/04/hack-this-site-hts-basic-7.html
https://es.slideshare.net/ciskosv/hackthissite-3402645
https://blog.abhishekg.com/2011/12/basic-7-unix/
https://github.com/DivyanshuSahu/HackThisSite/blob/master/Basic/files/7solved.png
https://www.aldeid.com/wiki/Hackthissite/Basic/Level7
https://www.youtube.com/watch?v=iBfxWu9WCDg
https://github.com/attilathedud/HackThisSite/tree/master/Basic
https://www.youtube.com/watch?v=5wHUpPyYL1Q&list=PL38E72D34562DC6A8&index=7
https://www.unknowncheats.me/forum/other-mmorpg-and-strategy/46386-hack-site-solutions.html
https://null-byte.wonderhowto.com/news/goodnight-byte-hackthissite-walkthrough-part-6-legal-hacker-training-0132231/
