https://raw.githubusercontent.com/pastelito02/Challenges-sol/master/Programming/codewars/number-to-string/Grenadine.clj
https://raw.githubusercontent.com/pastelito02/Challenges-sol/master/Programming/codewars/number-to-string/colbydauph.coffee
https://raw.githubusercontent.com/pastelito02/Challenges-sol/master/Programming/codewars/number-to-string/materialfuture.cr
https://raw.githubusercontent.com/pastelito02/Challenges-sol/master/Programming/codewars/number-to-string/alexDev21.cs
https://raw.githubusercontent.com/pastelito02/Challenges-sol/master/Programming/codewars/number-to-string/gans.hs
