https://raw.githubusercontent.com/DDOS-Attacks/ctf-writeups/master/2017/Google%20Capture%20The%20Flag%202017%20-Quals/Miscellaneous/mindreader/README.md
https://infosec.rm-it.de/2017/06/19/google-ctf-2017-mindreader/
https://ethicalhackers.club/google-ctf-2017-quals-write/
https://raw.githubusercontent.com/rtoma/google-ctf2017/master/mindreader/README.md
https://www.rootnetsec.com/googlectf-mindreader/
