https://www.youtube.com/watch?v=hA_lRblz0Ig
https://passionforpentesting.com/2017/04/27/owasp-hackademic-challenge-challenge-4/
https://www.hacking-lab.com/cases/8021-owasp-hackademic-challenge-4/index.html
https://www.youtube.com/watch?v=synFB3er-xc
https://r4stl1n.github.io/2015/07/28/Other-OWASP-Hackademic.html#chapter-4
http://promag.se/project/health-hack-academy-hacking-solutions-mental-health-issues-among-teenagers
https://www.changemakers.com/destinationchange/entries/hackacademy
http://y2u.be/hA_lRblz0Ig
