https://raw.githubusercontent.com/ozan/solutions/master/exercism/c/atbash-cipher/src/atbash_cipher.c
https://raw.githubusercontent.com/tfausak/exercism-solutions/master/haskell/atbash-cipher/Atbash.hs
https://raw.githubusercontent.com/binupaul/exercism-java-solutions/master/java/atbash-cipher/src/main/java/Atbash.java
https://raw.githubusercontent.com/ozan/solutions/master/exercism/javascript/atbash-cipher/atbash-cipher.js
https://raw.githubusercontent.com/exercism/bash/master/exercises/atbash-cipher/example.sh
