https://raw.githubusercontent.com/ilchen/cryptopals/master/src/main/java/com/cryptopals/Set7.java
https://raw.githubusercontent.com/lt/php-cryptopals/master/Cryptopals/Set7/Challenge51/Solution51.php
https://raw.githubusercontent.com/akalin/cryptopals-python3/master/challenge51.py
https://raw.githubusercontent.com/technion/matasano_challenge/master/set7/chal51/chal51.rb
