https://raw.githubusercontent.com/rongyi/leetcode/2e638f74a6da30b43e050a6cc9f9add01e8f27d8/cc/champagne-tower.cc
https://raw.githubusercontent.com/kamyu104/LeetCode-Solutions/master/C%2B%2B/champagne-tower.cpp
https://raw.githubusercontent.com/lailianqi/-My_leetcode/696b79455865fc5695fd31c7a6c720ee41002024/leetcode/799ChampagneTower.h
https://raw.githubusercontent.com/cherryljr/LeetCode/master/Champagne%20Tower.java
https://raw.githubusercontent.com/patilchinmay/Leetcode/0f0e8f7ee982a9b9d6349e252ad8f73303017b64/python/Arrays/champagne-tower.py
https://raw.githubusercontent.com/LiuLongyang0305/LeetCode/ddc19da37ecbd45cc4fc4540c0102b8af019ba96/swift/DynamicProgramming/799_ChampagneTower.swift
