https://raw.githubusercontent.com/mementum/codeeval/9774b7e32cbf1ed322eaf9fa9ec09cca5e765696/03-hard/0014-string-permutations/0014-string-permutations.cpp
https://gist.githubusercontent.com/yuheiomori/8555382/raw/2f35aa32724f44194b19779a30103e1a725d8d1d/main.go
https://raw.githubusercontent.com/mpillar/codeeval/master/2-hard/string-permutations/StringPermutations.java
https://raw.githubusercontent.com/pascal-bourut/codeeval-challenges/master/hard/14%20-%20String%20permutations/14.js
https://raw.githubusercontent.com/pascal-bourut/codeeval-challenges/master/hard/14%20-%20String%20permutations/14.php
https://raw.githubusercontent.com/FRodrigues42/codeeval-string-permutations/master/string_permutations.py
https://raw.githubusercontent.com/bdauria/codeeval/master/hard/string_permutations.rb
