https://raw.githubusercontent.com/lllllll-llll-llllll/codeabbey_autoit/master/13.au3
https://raw.githubusercontent.com/pastelito02/Challenges-sol/master/Programming/Codeabbey/013/erzett.cc
https://raw.githubusercontent.com/spokenlore/CodeAbbey/master/Beginner/13.%20weightedSum/weightedSum.cpp
https://raw.githubusercontent.com/pastelito02/Challenges-sol/master/Programming/Codeabbey/013/clinkisoncole.cs
https://raw.githubusercontent.com/pastelito02/Challenges-sol/master/Programming/Codeabbey/013/yozhikv10.d
https://raw.githubusercontent.com/skilled19/sols/master/JCDenton-13-weighted-sum-of-digits.fs
https://raw.githubusercontent.com/vinitkantrod/go-codeabbey/master/14_weighted_sum_of_digits/main.go
https://raw.githubusercontent.com/pastelito02/Challenges-sol/master/Programming/Codeabbey/013/ekerothjohannes.hs
https://raw.githubusercontent.com/meganroche/CodeAbbeySolutions/master/Java/WeightSum.java
https://raw.githubusercontent.com/pastelito02/Challenges-sol/master/Programming/Codeabbey/013/hawkdove.jl
https://raw.githubusercontent.com/DylanLenz/codeAbbey_Solutions_JavaScript/master/weightedSumOfDigits_codeAbbey_13.js
https://raw.githubusercontent.com/chriswood/codeabbey/master/ca13.lisp
https://raw.githubusercontent.com/pastelito02/Challenges-sol/master/Programming/Codeabbey/013/WyattMarks.lua
https://raw.githubusercontent.com/pastelito02/Challenges-sol/master/Programming/Codeabbey/013/IIIIkuoaIIII.ml
https://raw.githubusercontent.com/mpeshehonov/Codeabbey/master/practice/%2313/index.php
https://raw.githubusercontent.com/skilled19/sols/master/harv/codeabbey-13-weighted-sum-of-digits.pl
https://raw.githubusercontent.com/svaughnlewis/code-abbey-solutions/master/codeAbbey013_weighted-sum.py
https://raw.githubusercontent.com/marclerodrigues/ruby_exercises/master/weighted_sum_of_digits.rb
https://raw.githubusercontent.com/pastelito02/Challenges-sol/master/Programming/Codeabbey/013/qoweilsjdfa.rs
https://raw.githubusercontent.com/mmcdon20/code_abbey/master/src/main/scala/Abbey013.scala
https://raw.githubusercontent.com/pastelito02/Challenges-sol/master/Programming/Codeabbey/013/AginSquash.swift
https://raw.githubusercontent.com/skilled19/sols/master/harv/codeabbey-13-weighted-sum-of-digits.vb
https://raw.githubusercontent.com/JesseClarkND/codeabbey_in_C-NET/master/Weighted%20sum%20of%20digits
