https://www.youtube.com/watch?v=entpuC1oRoU
https://medium.com/secttp/overthewire-bandit-level-26-82c82ae45e5
https://medium.com/@coturnix97/overthewires-bandit-26-27-938191bcbf6
https://www.jonyschats.nl/writeups/bandit-level-25-to-26-to-27/
https://burakb.net/walkthroughs/overthewire-bandit-level-26-level-27/
https://computing60.wordpress.com/bandit-level-26/
https://www.youtube.com/watch?v=L-NLFeKnGjg
https://agsyndro.me/bandit-challenges-overthewire/#bandit-level-26-level-27-break-the-shell
http://codebluedev.blogspot.com/2015/07/overthewire-bandit-level-26.html
http://www.anonhack.in/2018/05/overthewirebandit-walkthrough-series-level-26/
https://aterriblething.wordpress.com/2019/04/11/overthewire-bandit-2/
