https://raw.githubusercontent.com/kartikgandhi/hackerrank/master/Algorithm/gradingstudents.c
https://raw.githubusercontent.com/c650/hackerrank-solutions/master/Algorithms/Implementation/grading-students.cpp
https://raw.githubusercontent.com/learpericles/Grading-Students/master/main.cs
https://raw.githubusercontent.com/irlndts/go-hackerrank/master/algorithms/implementation/grading-students.go
https://raw.githubusercontent.com/RodneyShag/HackerRank_solutions/master/General%20Programming/Basic%20Programming/Grading%20Students/Solution.java
https://raw.githubusercontent.com/gabrielgiordan/hackerrank/master/algorithms/implementation/grading.js
https://raw.githubusercontent.com/joshuatvernon/coding-challenges/master/Hackerrank/Algorithms/Implementation/01.%20Grading%20Students/grading-students.py
https://raw.githubusercontent.com/raghav97/Hackerrank-Solutions/master/grading_students.rb
https://raw.githubusercontent.com/witekbobrowski/HackerRank/master/Algorithms/Implementation/grading-students.swift
