https://www.youtube.com/watch?v=mHcGQuuUUl4
https://null-byte.wonderhowto.com/news/goodnight-byte-hackthissite-realistic-1-real-hacking-simulations-0132921/
https://www.youtube.com/watch?v=PWBcrOrumsA
https://hackthissitesoltution.wordpress.com/2012/03/07/hts-realistic-mission-1/
https://www.aldeid.com/wiki/Hackthissite/Realistic/Level1
https://www.businessinsider.com/goodnight-byte-hackthissite-realistic-1-real-hacking-simulations-2012-1
https://raw.githubusercontent.com/tiancode/learn-hacking/master/hackthissite/Realistic.md
https://www.youtube.com/watch?v=heTeRD0OFps
http://zer0byte.com/2011/11/14/hackthissite-org-realistic-mission-1-%E2%80%93-16-walk-throughs/
