https://incognitjoe.github.io/hacking-the-juice-shop.html
https://raw.githubusercontent.com/bkimminich/pwning-juice-shop/master/appendix/solutions.md
https://raw.githubusercontent.com/bsqrl/juice-shop-walkthrough/master/README.md
https://raw.githubusercontent.com/apox64/OWASP-Juice-Shop-Write-Up/master/juice-shop-writeup.md
https://bkimminich.gitbooks.io/pwning-owasp-juice-shop/content/part2/improper-input-validation.html
https://bkimminich.gitbooks.io/pwning-owasp-juice-shop/content/appendix/solutions.html
