ozzdmahmhboivtawksoivtumzdmaqvia bpzdaw dzmlonhbfjtcvtmldz vtotumqv uqmlqvqvoihmml qvawononmlqvqvqrawksksfjia myoiqv mazdvt vtzdzd dzumqrqrumonawksvt mlumvtotmlhboq jqoiqv umvtgb mymlksksoq hmzdzddz vuzdlcia pqmavtmlhb vtotumqv usmlfjjqzdhbdz oiqv qvzdksawvtumzdmajo qronqrdzqvumzdlcqvoitcuqia


CONGRATULATIONS!YOUDECRYPTEDTHISMESSAGESUCCESSFULLY!WASNOTTOODIFFICULTEITHER,WASIT.WELL,GOODJOB!ENTERTHISKEYWORDASSOLUTION.FCFDSIOBSAPM!
