https://srikavin.me/blog/posts/5d9e41ab6bac7409ac9e735e-picoctf-2019-shark-on-wire-2
https://raw.githubusercontent.com/Dvd848/CTFs/master/2019_picoCTF/shark_on_wire_2.md
https://raw.githubusercontent.com/noahc3/picoctf-2019-solutions/master/Forensics/shark-on-wire-2/readme.md
https://www.youtube.com/watch?v=l8XOPTsqegI
https://github.com/AMACB/picoCTF-2019-writeups/tree/master/problems/shark-on-wire-2
https://cyberchallenge.unica.it/index.php/2019/11/08/forensics-shark-on-wire-2/
