http://byd.dropsec.xyz/2016/07/23/Webchall-CTF-writeup2/
http://www.hackdig.com/02/hack-18982.htm
https://raw.githubusercontent.com/JackoQm/CTF-Writeups/master/Wechall/PHP/order_by_query/exploit.py
https://raw.githubusercontent.com/JackoQm/CTF-Writeups/master/Wechall/PHP/order_by_query/exploit-single.py
