https://alexandervoidstar.wordpress.com/2015/11/07/hackthis-real-level-5/
https://www.youtube.com/watch?v=KaJtGyrdRwo
http://juancho056.blogspot.com.co/2016/01/hackthis.html
https://raw.githubusercontent.com/james9909/PracticeCTF/master/HackThis/Real-5/Solution.txt
https://github.com/luceatnobis/challenges/blob/master/hackthis.co.uk/real/5/note
