https://www.abatchy.com/2017/02/mr-robot-1-walkthrough-vulnhub
https://nwrzd.medium.com/vulnhub-com-mr-robot-1-walkthrough-5119586b2a3f
https://wjmccann.github.io/blog/2018/06/08/Mr-Robot-1-Walkthrough
https://scriptkidd1e.wordpress.com/mr-robot-1-vulnhubs-vm-walkthrough/
https://ethicalhackingguru.com/vulnhub-mr-robot-vulnhub-walkthrough/
https://steemit.com/security/@falconspy/mr-robot-vulnhub-walkthrough
https://melbin.in/2020/08/13/mr-robot-1-vulnhub-machine-walkthrough/
