https://raw.githubusercontent.com/Cheshulko/Algorithms/master/Leetcode/AddTwoNumbers.cpp
https://raw.githubusercontent.com/kamyu104/LeetCode-Solutions/master/Golang/add-two-numbers.go
https://raw.githubusercontent.com/Rikin04/leetcode/master/0002.add-two-numbers/add-two-numbers.java
https://raw.githubusercontent.com/MrErHu/Leetcode/master/algorithms/2.Add%20Two%20Numbers/Add%20Two%20Numbers.js
