https://ringsterz.wordpress.com/2015/01/16/webhacking-kr-가입-및-problem-1/
https://joizel.readthedocs.io/ko/latest/wargame/web/[webhacking]%2001.html
https://me.matta.kr/writeup/web/2019/02/21/webhacking.kr_001/
