https://www.youtube.com/watch?v=YHHWvXBfwQ8
https://medium.com/bugbountywriteup/jarvis-hackthebox-writeup-7341a4d2517a
https://0xrick.github.io/hack-the-box/jarvis/
https://0xdf.gitlab.io/2019/11/09/htb-jarvis.html
https://snowscan.io/htb-writeup-jarvis/
https://raw.githubusercontent.com/chiseng/HTB-Writeups/master/jarvis/README.md
https://www.womencanhack.com/jarvis
https://hackso.me/jarvis-htb-walkthrough/
https://securityboulevard.com/2019/12/hack-the-box-htb-machines-walkthrough-series-jarvis/
https://blog.barradell-johns.com/index.php/2020/02/11/htb-jarvis/
https://www.hackingarticles.in/hack-the-box-jarvis-walkthrough/
https://netosec.com/jarvis-hackthebox-writeup/
https://infosec.rm-it.de/2019/11/09/hackthebox-jarvis/
https://blog.kuhi.to/jarvis_htb_writeup
https://www.vanderziel.org/2019/09/08/hackthebox-jarvis/
https://www.sakshamdixit.com/jarvis-hackthebox/
https://mlcsec.com/hackthebox-jarvis/
https://nxnjz.net/2019/11/hackthebox-eu-jarvis-writeup/
https://maddosaurus.github.io/2020/06/07/htb-jarvis
https://www.nav1n.com/2019/11/hack-the-box-jarvis-writeup-10-10-10-143/
https://www.digitalmunition.me/hackthebox-jarvis-tamil/
