https://resources.infosecinstitute.com/metasploitable-1-walkthrough/
https://www.youtube.com/watch?v=o8_qLxPW--s
https://asciinema.org/a/23619
https://msfbt.wordpress.com/2012/06/16/metasploitable-2-apache-tomcat-exploitation/
https://mundo-hackers.weebly.com/puerto-8180---tomcat.html
https://pentestlab.blog/2012/03/22/apache-tomcat-exploitation/
https://www.youtube.com/watch?v=hOHXSUtzJMQ
https://blog.g0tmi1k.com/2010/07/metasploitable-tomcat/
https://www.youtube.com/watch?v=diVyNT_ZLko
https://subscription.packtpub.com/book/networking_and_servers/9781783289592/6/ch06lvl1sec57/metasploitable-tomcat
http://securitypadawan.blogspot.com/2011/11/attacking-metasploitable-tomcat-this-is.html
https://backtrackacademy.com/articulo/metasploit-atacando-a-linux
https://metaspolitable2.wordpress.com/2017/10/06/first-blog-post/#ApacheTomcat
