https://raw.githubusercontent.com/nayuki/Project-Euler-solutions/master/haskell/p113.hs
https://raw.githubusercontent.com/nayuki/Project-Euler-solutions/master/java/p113.java
https://raw.githubusercontent.com/nayuki/Project-Euler-solutions/master/python/p113.py
https://raw.githubusercontent.com/nayuki/Project-Euler-solutions/master/mathematica/p113.mathematica
