https://resources.infosecinstitute.com/tutorial-on-sqli-labs/#gref
http://dummy2dummies.blogspot.com/2012/06/sqli-lab-series-part2.html
https://www.youtube.com/watch?v=OQr5kbhe5bo
https://www.youtube.com/watch?v=zVLPo9FtHhI
https://www.youtube.com/watch?v=Ph5cX1_DlJ8
https://raw.githubusercontent.com/gr4vit0n/sqli-labs-solution/master/less04.py
http://p0desta.com/2018/01/28/Sqli_labs%E9%80%9A%E5%85%B3%E6%96%87%E6%A1%A3/
https://blog.zeddyu.info/2019/03/03/Sqli-lab%E9%80%9F%E5%88%B7%E8%AE%B0%E5%BD%95(1-53)/#Less-4
