https://raw.githubusercontent.com/peterferrie/modexp/master/mx.asm
https://raw.githubusercontent.com/csknk/fast-modular-exponentiation/master/c/main.c
https://raw.githubusercontent.com/pastelito02/Challenges-sol/master/Programming/Codeabbey/145/goto.cc
https://raw.githubusercontent.com/DionysiosB/CodeAbbey/master/ModularExponentiation.cpp
https://raw.githubusercontent.com/pastelito02/Challenges-sol/master/Programming/Codeabbey/145/dimitor.cs
https://raw.githubusercontent.com/dartist/dart-bignum/master/lib/src/null_exp.dart
https://gist.githubusercontent.com/Radcliffe/e41b41a441deda19e7ac5731197f49be/raw/703e91f2f4449b9e3053e8503ecf09dbfa62f08b/powermod.erl
https://raw.githubusercontent.com/h4cc/awesome-elixir/master/tests/check.exs
https://raw.githubusercontent.com/mgenware/go-modular-exponentiation/master/modexp.go
https://gist.githubusercontent.com/trevordixon/6788535/raw/01dda9e2a5575532d823588d4e75a13dd6a8284d/modExp.hs
https://raw.githubusercontent.com/pastelito02/Challenges-sol/master/Programming/Codeabbey/145/luifrangm.java
https://raw.githubusercontent.com/pastelito02/Challenges-sol/master/Programming/Codeabbey/145/hohanga.js
https://raw.githubusercontent.com/pastelito02/Challenges-sol/master/Programming/Codeabbey/145/i.lisp
https://raw.githubusercontent.com/pastelito02/Challenges-sol/master/Programming/Codeabbey/145/ayy_luamao.lua
https://gist.githubusercontent.com/ttezel/4635562/raw/f16360021abffdcbeb16c63a6d87b8cbbc8adad0/modexp.m
https://raw.githubusercontent.com/javilag/codeAbbeyChalls/master/Challs/OCaml/145.ml
https://raw.githubusercontent.com/Xor-el/IntXLib4Pascal/master/IntXLib/src/IntX/uIntX.pas
https://raw.githubusercontent.com/pastelito02/Challenges-sol/master/Programming/Codeabbey/145/KOR_Ryat.php
https://raw.githubusercontent.com/GuillermoLopezJr/CodeAbbey/master/Abbey145/main.py
https://raw.githubusercontent.com/pastelito02/Challenges-sol/master/Programming/Codeabbey/145/maverick.rb
https://gitlab.com/CodeArtisan/codeabbey/raw/master/problem_145/solution.rkt
https://raw.githubusercontent.com/pwoolcoc/mod_exp-rs/master/src/lib.rs
https://raw.githubusercontent.com/pastelito02/Challenges-sol/master/Programming/Codeabbey/145/scala_scholar.scala
https://raw.githubusercontent.com/pastelito02/Challenges-sol/master/Programming/Codeabbey/145/hamza772000.vb
https://raw.githubusercontent.com/JesseClarkND/codeabbey_in_C-NET/master/Modular%20Exponentiation
