https://raw.githubusercontent.com/mementum/codeeval/master/02-medium/0073-decode-numbers/0073-decode-numbers.cpp
https://gist.githubusercontent.com/yuheiomori/9382733/raw/42b128055a6ba2693e33712622811f45eaff7f2d/main.go
https://raw.githubusercontent.com/pascal-bourut/codeeval-challenges/master/moderate/73%20-%20Decode%20Numbers/73.js
https://raw.githubusercontent.com/pascal-bourut/codeeval-challenges/master/moderate/73%20-%20Decode%20Numbers/73.php
https://gist.githubusercontent.com/yuheiomori/9380835/raw/d7d0279ace4efa12b1b1ce74cf2f448cb005745f/main.py
https://gitlab.com/agaskell/codeeval/-/raw/master/73/73.rb
