https://raw.githubusercontent.com/rdtsc/codeeval-solutions/master/src/easy/rightmost-char/solutions/c/solution.c
https://raw.githubusercontent.com/rdtsc/codeeval-solutions/master/src/easy/rightmost-char/solutions/c%2B%2B/solution.cpp
https://gitlab.com/agaskell/codeeval/-/raw/master/31/31.go
https://raw.githubusercontent.com/Aadeshp/Codeeval-Solutions/29af977f30e6c5e5823e1e34ecd6de3c77506682/Easy/Rightmost_Char.java
https://raw.githubusercontent.com/pascal-bourut/codeeval-challenges/master/easy/31%20-%20Rightmost%20Char/31.js
https://raw.githubusercontent.com/pascal-bourut/codeeval-challenges/master/easy/31%20-%20Rightmost%20Char/31.php
https://raw.githubusercontent.com/edeng/CodeEval/master/Easy/RightmostChar.py
https://gitlab.com/tmck-code/codeeval/-/raw/master/easy/Ruby/RightmostChar/RightmostChar.rb
