https://raw.githubusercontent.com/Cheshulko/Algorithms/master/Leetcode/CombinationSum.cpp
https://raw.githubusercontent.com/Rikin04/leetcode/master/0039.combination-sum/combination-sum.java
https://raw.githubusercontent.com/aylei/leetcode-rust/master/src/solution/s0039_combination_sum.rs
