https://zero-day.io/metasploitwalkthrough/
https://revista.seguridad.unam.mx/numero-19/pruebas-de-penetraci%C3%B3n-para-principiantes-explotando-una-vulnerabilidad-con-metasploit-fra
https://www.hackingtutorials.org/exploit-tutorials/metasploitable-3-exploiting-http-put/
