https://0x00sec.org/t/metasploitable-1-walkthrough/3964
https://www.youtube.com/watch?v=zzXKifu0LQk
https://www.smeegesec.com/2012/06/backtrack-and-metasploitable-2-brute.html
https://shahmeeramir.com/penetration-testing-of-an-ftp-server-19afe538be4b
https://metaspolitable2.wordpress.com/2017/10/06/first-blog-post/
https://kush.com.fj/blog/posts/2018-07-27-metasploitable2-walkthrough/
