https://raw.githubusercontent.com/igor-kutepov/codeabbey/master/src/main/java/com/kutepov/samples/codeabbey/EasterEggs.java
https://raw.githubusercontent.com/djs1193/codeabbey/master/q103.py
https://raw.githubusercontent.com/ruby/ruby/a0c7c23c9cec0d0ffcba012279cd652d28ad5bf3/lib/irb/easter-egg.rb
https://gist.githubusercontent.com/KhaledElshamy/7f2446aa04bbcb1a23256e30bd603d20/raw/f95865169a32bb3c1ad07842ef37f4314e8250c2/B.%2520Easter%2520Eggs-codeforces
