https://raw.githubusercontent.com/joand/codingame/master/easy/MarsLander/marslander.cpp
https://raw.githubusercontent.com/pathosDev/CodinGame-Solutions/master/Puzzles/Easy/Mars%20Lander%20-%20Episode%201/CSharp.cs
https://raw.githubusercontent.com/pathosDev/CodinGame-Solutions/master/Puzzles/Easy/Mars%20Lander%20-%20Episode%201/Java.java
https://raw.githubusercontent.com/vadim-job-hg/Codingame/master/EASY/MARS%20LANDER%20-%20EPISODE%201/php/mars-lander-episode-1.php
https://raw.githubusercontent.com/pathosDev/CodinGame-Solutions/master/Puzzles/Easy/Mars%20Lander%20-%20Episode%201/Python.py
