http://hackerorgsolution.blogspot.com.co/2014/09/didactic-bytes.html
https://raw.githubusercontent.com/charles-wangkai/hacker.org/master/challenge/DidacticByte.py
https://raw.githubusercontent.com/luceatnobis/challenges/master/hacker.org/didactic_bits/bits.pl
