https://raw.githubusercontent.com/Wh1t3Fox/hackthissite/master/programming/03.reverse_encryption/encryption.php
https://github.com/EthanBlackburn/HTSmission3
https://raw.githubusercontent.com/Wh1t3Fox/hackthissite/master/programming/03.reverse_encryption/encryption.py
