https://www.gitmemory.com/sainad2222
http://www.inspireguidemag.co.za/bl9pb2/picoctf-2019-writeups.html
https://medium.com/@joe.s.mcdonnell/picoctf-2019-writeup-beginner-challenges-9b41806952b0
https://raw.githubusercontent.com/PlatyPew/picoctf-2018-writeup/master/Web%20Exploitation/Logon/README.md
https://raw.githubusercontent.com/0e85dc6eaf/CTF-Writeups/master/PicoCTF%202019/Web%20Exploitation/logon/README.md
https://raw.githubusercontent.com/sefi-roee/CTFs-Writeups/master/picoCTF-2019/Web/03-logon-100/solution.md
https://redpwn.net/writeups/picoctf2019/irish-name-repo-2/
https://www.youtube.com/watch?v=dg0e6_QBP_w
https://www.youtube.com/watch?v=laHXj84iGcY
https://www.4rth4s.xyz/2019/10/picoctf2019webexploitation-write-up.html
