https://www.youtube.com/watch?v=iscopb68mrI
https://sp4hack.blogspot.com/2012/09/hack-this-site-basic-11.html
https://blog.abhishekg.com/2011/12/basic-11-is-there-a-solution-even/
https://raw.githubusercontent.com/attilathedud/HackThisSite/master/Basic/README.md
https://www.youtube.com/watch?v=5qvIQFGYD5Q
https://www.youtube.com/watch?v=Z586bp2-Ros
https://null-byte.wonderhowto.com/news/goodnight-byte-hackthissite-walkthrough-part-10-legal-hacker-training-0132759/
https://www.aldeid.com/wiki/Hackthissite/Basic/Level11
