https://raw.githubusercontent.com/Gamer1092/Coderbyte-Medium/Medium/Prime%20Time.cpp
https://raw.githubusercontent.com/ZLester/Coderbyte-Solutions/master/Medium/01%20-%20Prime%20Time.js
https://raw.githubusercontent.com/alecashford/Coderbyte-Solutions-Python/master/prime_time.py
