https://gist.githubusercontent.com/yuheiomori/11392218/raw/5304e3289e7ed3c2d6a9f2ea1fcb1476d257abf6/main.c
https://raw.githubusercontent.com/mementum/codeeval/master/01-easy/0008-reverse-words/0008-reverse-words.cpp
https://raw.githubusercontent.com/mneudert/codeeval/master/easy/reverse-words/cs.cs
https://gitlab.com/banjocat/codeeval_solutions/-/raw/master/8/main.go
https://raw.githubusercontent.com/mpillar/codeeval/master/0-easy/fizz-buzz/FizzBuzz.java
https://raw.githubusercontent.com/tpgmartin/CodeEval/master/JavaScript/easy/reverse_words.js
https://raw.githubusercontent.com/AnEmortalKid/codeeval-lua/master/src/main/lua/com/anemortalkid/codeeval/lua/easy/reversewords/reverse_words.lua
https://raw.githubusercontent.com/rdtsc/codeeval-solutions/master/src/easy/reverse-words/solutions/php/solution.php
https://raw.githubusercontent.com/rdtsc/codeeval-solutions/master/src/easy/reverse-words/solutions/python/solution.py
https://gitlab.com/agaskell/codeeval/-/raw/master/8/8.rb
