https://raw.githubusercontent.com/Lv4Kuroko/Wargame.kr-wtf-code/master/README.md
https://btr95.tistory.com/entry/WarGame-WTFCODE?category=757802?category=757802
https://xn--vj5b11biyw.kr/40
https://sangblog.zz.am/entry/wargamekr-WTFCODE-%EB%AC%B8%EC%A0%9C
https://intunknown.tistory.com/419
https://blog.limelee.xyz/entry/WTFCODE?category=744475
https://tkdrms568.tistory.com/153
https://5ersec.blogspot.com/2017/09/wargamekr-450p-wtfcode.html
https://blog.zairo.kr/entry/Wargamekr-Challenge-WTFCODE?category=603526
https://qerogram.tistory.com/entry/wargamekr-WTFCODE-%ED%92%80%EC%9D%B4
https://m.blog.naver.com/PostView.nhn?blogId=bluething87&logNo=220918222157&proxy
https://limelee85.tistory.com/m/entry/WTFCODE?category=744475
https://cha3m.tistory.com/entry/wargamekr-WTFCODE
