https://medium.com/@arnavtripathy98/broken-2020-1-vulnhub-walkthrough-43293614944a
https://www.youtube.com/watch?v=1Yg1hUSsY4g
https://www.youtube.com/watch?v=T-8dvC1-l48
https://www.hackingarticles.in/broken-2020-1-vulnhub-walkthrough/
https://www.haclabs.org/post/broken-2020
https://hack-tips.com/2020/05/30/vulnhub-broken-2020-walkthrough/
https://tsecurity.de/de/1206422/IT-Security/Hacking/Broken-2020-1-Vulnhub-Walkthrough/
https://paraskapoor.in/hacking-articles/broken-2020-1-vulnhub-walkthrough/
https://medium.com/@DamaneDz/vulnhub-broken-2020-writeup-walkthrough-710441b286eb
https://www.youtube.com/watch?v=f5paLeH8s6s
