https://raw.githubusercontent.com/BlakeBrown/HackerRank-Solutions/master/Algorithms/Warmup/Circular%20Array%20Rotation.cpp
https://raw.githubusercontent.com/RyanFehr/HackerRank/master/Algorithms/Implementation/Circular%20Array%20Rotation/Solution.cs
https://raw.githubusercontent.com/rishabh1403/hackerrank-golang-solutions/master/practice/algorithms/implementation/circular-array-rotation.go
https://raw.githubusercontent.com/RyanFehr/HackerRank/master/Algorithms/Implementation/Circular%20Array%20Rotation/Solution.java
https://raw.githubusercontent.com/gabrielgiordan/hackerrank/master/algorithms/implementation/circular-array-rotation.js
https://raw.githubusercontent.com/ehouarn-perret/EhouarnPerret.Python.HackerRank/master/1%20-%20Algorithms/0%20-%20Warmup/9%20-%20Circular%20Array%20Rotation.py
https://raw.githubusercontent.com/raghav97/Hackerrank-Solutions/master/circular_array_rotation.rb
https://raw.githubusercontent.com/witekbobrowski/HackerRank/master/Algorithms/Implementation/circular-array-rotation.swift
