6D 7H AH 7S QC 6H 2D TD JD AS
JH 5D 7H TC JS JD JC TS 5S 7S
2H 8C AD TH 6H QD KD 9H 6S 6C
JS JH 4H 2C 9H QH KC 9D 4D 3S
TC 7H KH 4H JC 7D 9S 3H QS 7S
3D 4C 5D 6D 7S QH JS 3H 5C QC
JC 8C JH 2S TC JS 3D JD 4D 7C
