https://raw.githubusercontent.com/rootulp/exercism/master/java/gigasecond/src/main/java/Gigasecond.java
https://raw.githubusercontent.com/rootulp/exercism/master/javascript/gigasecond/gigasecond.js
https://raw.githubusercontent.com/rootulp/exercism/master/python/gigasecond/gigasecond.py
https://raw.githubusercontent.com/rootulp/exercism/master/ruby/exercises/gigasecond/gigasecond.rb
https://raw.githubusercontent.com/exercism/xrust/master/exercises/gigasecond/example.rs
