http://hackerorgsolution.blogspot.com.co/2014/09/didactic-text-combo.html
https://raw.githubusercontent.com/charles-wangkai/hacker.org/master/challenge/DidacticTextCombo.py
https://raw.githubusercontent.com/luceatnobis/challenges/master/hacker.org/didactic_text_combo/comb.pl
