http://infosecarmory.blogspot.com/2013/04/sqli-labs-lesson-2-walkthrough.html
http://dummy2dummies.blogspot.com/2012/06/sqli-lab-series-part2.html
https://topic.alibabacloud.com/a/sqli-labs-less-2_8_8_30058407.html
https://resources.infosecinstitute.com/tutorial-on-sqli-labs/
https://www.dazhuanlan.com/2019/10/20/5dac7c0dee044/
https://www.lagou.com/lgeduarticle/38731.html
http://infosecfundas.blogspot.com/2016/01/audi1-sqli-labs-challenges-1-4-solved.html
https://zerokeeper.com/web-security/sqlilibs-learning-notes-1-10-off.html
https://www.writeup.top/466.html
https://www.youtube.com/watch?v=_4xAnu9ydCQ
https://skysec.top/2017/07/18/SQLi-LABS(Basic)(Less-1%20~%20Less-22)/#Less-2
https://www.cdxy.me/?p=474
https://github.com/gr4vit0n/sqli-labs-solution/blob/master/less02.py
https://github.com/WangYihang/sqli-labs/blob/master/writeup/Lesson-02.md
