https://www.youtube.com/watch?v=JRPWFSzFaG0
https://www.youtube.com/watch?v=6ABuMIBqtGM
https://www.youtube.com/watch?v=T66suKfhZKY
https://www.youtube.com/watch?v=eiTgBem9AJ4
https://forum.hackthebox.eu/discussion/31/bank-write-up-by-arrexel
https://drive.google.com/file/d/1IJl2GLMZpg0VgZ24kXZupp611Gsqgtql/view
https://www.jdksec.com/hack-the-box/bank
https://resources.infosecinstitute.com/hack-the-box-htb-machines-walkthrough-series-bank/#gref
https://www.hackingarticles.in/hack-the-box-challenge-bank-walkthrough/
https://mundo-hackers.weebly.com/pleasetellmehowtobank.html
http://blog.haao.sh/writeups/bank-writeup/
https://medium.com/@0katz/bank-ctf-writeup-1f726b5abff5
https://raw.githubusercontent.com/Beers4Flags/writeups/master/2018/NoNameCon/web/Bank/README.md
https://ctfhelper.home.blog/2019/07/25/cherryblog-cash-bank-writeup-web-exploitation-ctf-securtiy-writeup/
https://raw.githubusercontent.com/Bengman/CTF-writeups/master/Hackthebox/bank.md
https://hkh4cks.com/blog/2017/12/30/htb-bank-walkthrough/
https://www.freecodecamp.org/news/keep-calm-and-hack-the-box-bank/
https://mrsaighnal.github.io/2019-04-26-bank-walkthrough/
https://medium.com/@johnsonmatt/hackthebox-bank-walkthrough-8b637ec6a0df
https://medium.com/hackthebox-writeups-by-jsinix/hack-the-box-bank-53c7397d721
https://blckbrdsec.com/2019/12/25/HTB-Bank/
https://qiita.com/yukitsukai47/items/12b7f068d2aee2473309
