http://www.h3399.cn/201707/111479.html
https://teckk2.github.io/web-pentesting/2018/02/07/SQL-Injection-(Login-Form-User).html
https://www.youtube.com/watch?v=7QnTx9CeHto
https://youtu.be/79qEq1c18y4
https://net123.tistory.com/458?category=695510
https://wooly6bear.files.wordpress.com/2016/01/bwapp-tutorial.pdf
