https://raw.githubusercontent.com/jiayuanmark/hackerrank/master/hackrank-back-school/almost-sorted.cpp
https://raw.githubusercontent.com/AlexAtNet/galgo/master/solutions/hackerrank/almost-sorted/almost-sorted.go
https://raw.githubusercontent.com/havelessbemore/hackerrank/master/algorithms/sorting/almost-sorted.java
https://raw.githubusercontent.com/rrylee/HackerRank-Solution/master/Algorithm/Sorting/18-almost-sorted.php
https://raw.githubusercontent.com/duaraghav8/Hackerrank-Problems/master/almost_sorted.py
https://raw.githubusercontent.com/rootulp/hackerrank/master/ruby/almost_sorted.rb
