https://raw.githubusercontent.com/derekhh/HackerRank/master/game-of-thrones.cpp
https://raw.githubusercontent.com/leeychee/hackerrank/master/practice/algorithms/strings/game_of_thrones_1/main.go
https://raw.githubusercontent.com/MaskRay/HackerRank/master/game-of-thrones.hs
https://raw.githubusercontent.com/aditiraj/hackerrankSolutions-JavaScript/master/Strings/gameOfThrones-I.js
https://raw.githubusercontent.com/Shwaubh/HackerrankSolutions/master/easy/string/game_of_thrones.py
https://raw.githubusercontent.com/MaskRay/HackerRank/master/game-of-throne-ii.rb
https://raw.githubusercontent.com/andrewrk/hackerrank/master/game-of-thrones/main.rs
