https://reboare.github.io/hackthebox/htb-bastard.html
https://teckk2.github.io/writeup/2017/12/21/Bastard.html
https://medium.com/@0katz/bastard-ctf-writeup-4d031274033e
https://htb.hackproof.tech/2018/05/bastard-1010109-write-up.html
https://jasperandgarrison.wordpress.com/2017/12/13/hackthebox-bastard/
https://www.peerlyst.com/posts/how-to-hackthebox-bastard-machine-writeup-spirited-wolf
https://redteamtutorials.com/2018/11/07/hack-the-box-bastard/
https://hackingresources.com/bastard-hackthebox-walkthrough/
https://medium.com/@ranakhalil101/hack-the-box-bastard-writeup-w-o-metasploit-78cceac4b9f4
https://medium.com/@RainSec/bastard-hack-the-box-machine-writeup-8c4c5e329e56
https://0xdf.gitlab.io/2019/03/12/htb-bastard.html
https://www.sevenlayers.com/index.php/259-hackthebox-bastard-walkthrough
https://esseum.com/hack-the-box-bastard-writeup/
https://blog.artis3nal.com/2020-05-24-htb-bastard/
https://www.puckiestyle.nl/htb-bastard/
https://blog.csdn.net/qq_34801745/article/details/104277881
