http://raidersec.blogspot.com/2012/10/smash-stack-io-level-3-writeup.html
https://raw.githubusercontent.com/linuxp3nguin/smashing-the-stack-2013/master/IO/003
https://www.greyhat.dk/io-smashthestack-level-03/
https://www.youtube.com/watch?v=Fzmki8ww7pk
https://www.youtube.com/watch?v=LyG4XlJxaWU
https://infamoussyn.wordpress.com/2013/09/05/smashthestack-io-walkthrough-part-a-level-1-5/
https://www.youtube.com/watch?v=T_hQJFUrclQ
