https://raw.githubusercontent.com/Samleo8/CoderByte/master/Easy/LetterCapitalize.c
https://raw.githubusercontent.com/Nigelmnz/CoderbyteSolutions/master/06-LetterCapitalize/6.hs
https://raw.githubusercontent.com/ZLester/Coderbyte-Solutions/master/Easy/06%20-%20Letter%20Capitalize.js
https://raw.githubusercontent.com/copacubanana/phpCoderbyteEasy/master/06lettercapitalize.php
https://raw.githubusercontent.com/juyongsim/coderbyte/master/LetterCapitalize.rb
