18
1899 31.0656 66.7298
2666 23.6833 62.5196
1660 32.4912 57.7793
2694 29.3284 67.2181
1055 35.7364 58.2132
432 34.0446 56.5616
3431 24.4440 64.3497
2968 24.5417 57.3723
745 27.0231 53.5228
1688 33.8686 60.3157
2519 22.6176 54.2532
2149 26.9142 56.9811
598 29.4615 52.7603
1749 29.7424 61.6402
914 39.7994 59.0307
444 39.3504 55.4045
1137 39.3390 59.4679
1182 22.2082 63.9312
