https://www.aldeid.com/wiki/WackoPicko/Command-Line-Injection
https://www.youtube.com/watch?v=A1IZvf7XF20
http://sefcom.asu.edu/publications/black-box-scanners-dimva2010.pdf
https://www.youtube.com/watch?v=aFUZLA0f2KE
https://support.portswigger.net/customer/portal/articles/2590661-using-burp-to-test-for-os-command-injection-vulnerabilities
https://www.youtube.com/watch?v=bBgdHS7i-dc
