https://gist.githubusercontent.com/HarveyZhang/9440834/raw/c02c5a4655fd7e83af8ea0920fc8fd9bd910b713/single_number.cpp
https://raw.githubusercontent.com/zjbztianya/LeetCode/master/Algorithms/0136.single-number/single-number.go
https://raw.githubusercontent.com/agermain/Leetcode/master/solutions/136-single-number/single-number.java
https://raw.githubusercontent.com/hawkingrei/LeetCode/master/python/136.py
https://raw.githubusercontent.com/higuoxing/leetcode/master/src/single_number_136.rs
