https://github.com/feix/ctf-writeup/blob/master/canyouhackit/web/solution6
https://www.youtube.com/watch?v=JtXeD9pNznA&feature=youtu.be&t=2m34s
https://raw.githubusercontent.com/pastelito02/Challenges-sol/master/canyouhackit/Web/Solution06.lst
