https://raw.githubusercontent.com/uwegeercken/awk_scripts/master/field_permutations.awk
https://raw.githubusercontent.com/kouzant/lexperm/master/lexperm.c
https://raw.githubusercontent.com/clojure/math.combinatorics/master/src/main/clojure/clojure/math/combinatorics.cljc
https://gist.githubusercontent.com/syohex/8236386/raw/840053d8d4b52b40a5c67d6f8a34e00c6bc337bf/permutation.coffee
https://raw.githubusercontent.com/DavidWallacedot/permutations/master/permutations.cpp
https://raw.githubusercontent.com/28ACB29/Word-Ranker/master/RankWord/RankWord/Program.cs
https://raw.githubusercontent.com/seantanly/elixir-combination/master/lib/combination.ex
https://raw.githubusercontent.com/cweill/Permute-Golang/master/permute.go
https://raw.githubusercontent.com/yasuabe/project-euler-haskell/master/solutions/090.hs
https://raw.githubusercontent.com/igor-kutepov/codeabbey/master/src/main/java/com/kutepov/samples/codeabbey/LexicographicPermutations.java
https://raw.githubusercontent.com/bhalash/lexicographer/master/lexicographer.js
https://gist.githubusercontent.com/Tandrial/a63ccae712f08a56c2ca9a57b5e3be74/raw/ae0fc6b4bce4e559849e4abbd8e7a539cdc8f359/iterTools.kt
https://raw.githubusercontent.com/stylewarning/cl-permutation/master/src/permutation-generation.lisp
https://gist.githubusercontent.com/pgk/3933305/raw/7d6cb27d1c85509126a20f1ff7597a3bea4af6c1/permutations.lua
https://gist.githubusercontent.com/Bamco/6151962/raw/aba39db3bd9d755431f7a367e93b9c19b5ed5ca7/permutations.ml
https://gist.githubusercontent.com/lolindirfaelivrin/2584450/raw/73f0f487770f6077bf6d33612e739776c9336faf/php_perumtaion.php
https://raw.githubusercontent.com/kazamari/CodeAbbey/master/090_lexicographic-permutations.py
https://gist.githubusercontent.com/axilleas/7093f0e2f05b425c264f/raw/b392a22164dac64e5d4791f5d427fc371ef55ff8/perm.rb
https://raw.githubusercontent.com/NattapongSiri/permutator/master/src/lib.rs
https://raw.githubusercontent.com/billyean/acadia/master/scala/src/main/scala/com/haiboyan/scala/algorithm/permutation/permute.scala
https://raw.githubusercontent.com/JesseClarkND/codeabbey_in_C-NET/master/Lexicographic%20Permutations
