https://resources.infosecinstitute.com/tutorial-on-sqli-labs/
https://www.cnblogs.com/litlife/p/8519794.html
https://www.jianshu.com/p/c6a861507292
https://www.youtube.com/watch?v=B7QUJYRySew
https://www.cnblogs.com/lcamry/p/5763008.html
https://www.programmersought.com/article/92712945161/
https://www.wjlshare.xyz/2019/06/16/sqli-labs-less-24/
http://blog.gqylpy.com/gqy/1962/
http://p0desta.com/2018/01/28/Sqli_labs%E9%80%9A%E5%85%B3%E6%96%87%E6%A1%A3/
https://flora.gitbooks.io/web-application-security/sqli-labs_lesson_24.html
