https://github.com/bsqrl/juice-shop-walkthrough#4-log-in-with-jims-user-account
https://github.com/apox64/OWASP-Juice-Shop-Write-Up/blob/master/juice-shop-writeup.md#14-log-in-with-jims-user-account
https://github.com/bkimminich/pwning-juice-shop/blob/master/appendix/solutions.md#log-in-with-jims-user-account
https://bkimminich.gitbooks.io/pwning-owasp-juice-shop/content/appendix/solutions.htmlhttps://github.com/bsqrl/juice-shop-walkthrough#4-log-in-with-jims-user-account
https://bkimminich.gitbooks.io/pwning-owasp-juice-shop/content/part2/broken-authentication.html
https://raw.githubusercontent.com/apox64/OWASP-Juice-Shop-Write-Up/master/juice-shop-writeup.md
