https://www.youtube.com/watch?v=GuamLcJyffY&t=4s
https://github.com/njk464/pwnable.kr/blob/master/col.sol
https://github.com/smholsen/pwnable.kr/blob/master/2-collision/readme.md
https://gist.github.com/ihciah/0ca68da3e32e38818bb9#2-collision
https://www.youtube.com/watch?v=Nmoi9UoiuBM
https://www.abatchy.com/2017/09/pwnable-kr-fd
https://jaimelightfoot.com/blog/pwnables-kr-collision-walkthrough/
https://github.com/victor-li/pwnable.kr-write-ups/blob/master/collision.md
