https://raw.githubusercontent.com/HamidTheGeek/HackerRankSolutions/master/Solutions/SortingBubbleSort.cs
https://raw.githubusercontent.com/handracs2007/hackerrank_30_sorting/master/main/main.go
https://raw.githubusercontent.com/Bogdan-Lyashenko/js-algorithms/master/src/bubble-sort/bubble-sort.js
https://raw.githubusercontent.com/witekbobrowski/HackerRank/master/Cracking%20the%20Coding%20Interview/Algorithms/sorting-bubble-sort.swift
