https://raw.githubusercontent.com/spnow/challenges-1/master/root-me/app-script/ELF32-system2
https://www.cnblogs.com/heycomputer/articles/10536363.html
https://raw.githubusercontent.com/Hadopire/Root-me-App-Systeme/master/ELF32-System-2/ELF32-System-2.sh
